{ "compressionlevel":-1,
 "height":45,
 "infinite":false,
 "layers":[
        {
         "data":[9113, 9113, 9113, 9113, 9113, 9113, 9113, 9113, 9113, 9113, 9113, 9113, 9113, 9113, 9113, 9113, 1166, 1166, 2729, 2729, 2218, 2218, 2218, 2218, 2218, 2218, 2218, 2218, 2218, 2218, 2218, 2218, 2218, 2218, 2218, 2218, 2218, 2218, 2218, 2218, 2218, 2218, 2218, 2218, 2218, 2218, 2218, 2218, 2218, 2218, 2218, 2218, 2218, 2218, 2218, 2218, 2218, 2218, 2218, 2218, 2729, 2729, 2729, 2729, 2729, 2729, 2729, 2729, 2729, 2729, 2729, 2729, 2729, 2729, 2729, 9113, 9113, 9113, 9113, 9113, 9113, 9113, 9113, 9113, 9113, 9113, 9113, 9113, 9113, 9113, 9113, 9113, 1166, 2729, 2729, 2218, 2218, 2218, 2218, 2218, 2218, 2218, 2218, 2218, 2218, 2218, 2218, 2218, 2218, 2218, 2218, 2218, 2218, 2218, 2218, 2218, 2218, 2218, 2218, 2218, 2218, 2218, 2218, 2218, 2218, 2218, 2218, 2218, 2218, 2218, 2218, 2218, 2218, 2218, 2218, 2729, 2729, 2729, 2729, 2729, 2729, 2729, 2729, 2729, 2729, 2729, 2729, 2729, 2729, 2729, 9113, 9113, 9113, 9113, 9113, 9113, 9113, 9113, 9113, 9113, 9113, 9113, 9113, 9113, 9113, 9113, 9113, 1166, 2729, 2729, 2729, 2218, 2218, 2218, 2218, 2218, 2218, 2218, 2218, 2218, 2218, 2218, 2218, 2218, 2218, 2218, 2218, 2218, 2218, 2218, 2218, 2218, 2218, 2218, 2218, 2218, 2218, 2218, 2218, 2218, 2218, 2729, 2729, 2729, 2729, 2729, 2729, 2729, 2729, 2729, 2729, 2729, 2729, 2729, 2729, 2729, 2729, 2729, 2729, 2729, 2729, 2729, 2729, 2729, 2729, 9113, 9113, 9113, 9113, 9113, 9113, 9113, 9113, 9113, 9113, 9113, 9113, 9113, 9113, 9113, 9113, 9113, 1166, 2729, 2729, 2729, 2729, 2729, 2218, 2218, 2218, 2218, 2218, 2218, 2218, 2218, 2218, 2218, 2218, 2218, 2218, 2218, 2218, 2218, 2218, 2218, 2218, 2218, 2218, 2218, 2218, 2218, 2218, 2218, 2218, 2729, 2729, 2729, 2729, 2729, 2729, 2729, 2729, 2729, 2729, 2729, 2729, 2729, 2729, 2729, 2729, 2729, 2729, 2729, 2729, 2729, 2729, 2729, 2729, 2729, 9113, 9113, 9113, 9113, 9113, 9113, 9113, 9113, 9113, 9113, 9113, 9113, 9113, 9113, 9113, 9113, 9113, 1166, 2729, 2729, 2729, 2729, 2729, 2729, 2218, 2218, 2218, 2218, 2218, 2218, 2218, 2218, 2218, 2218, 2218, 2218, 2218, 2218, 2218, 2218, 2218, 2218, 2218, 2218, 2218, 2218, 2218, 2218, 2729, 2729, 2729, 2729, 2729, 2729, 2729, 2729, 2729, 2729, 2729, 2729, 2729, 2729, 2729, 2729, 2729, 2729, 2729, 2729, 2729, 2729, 2729, 2729, 2729, 2729, 2729, 9113, 9113, 9113, 9113, 9113, 9113, 9113, 9113, 9113, 9113, 9113, 1695, 1695, 1695, 1695, 2226, 2226, 1166, 2729, 2729, 2729, 2729, 2729, 2729, 2729, 2729, 2218, 2218, 2218, 2218, 2218, 2218, 2218, 2218, 2218, 2218, 2218, 2218, 2218, 2218, 2218, 2218, 2218, 2218, 2218, 2218, 2218, 2729, 2729, 2729, 2729, 2729, 2729, 2729, 2729, 2729, 2729, 2729, 2729, 2729, 2729, 2729, 2729, 2729, 2729, 2729, 2729, 2729, 2729, 2729, 2729, 2729, 2729, 2729, 2729, 9113, 9113, 9113, 9113, 9113, 9113, 9113, 9113, 9113, 9113, 1695, 1695, 1695, 1695, 1695, 2226, 2226, 1166, 2729, 2729, 2729, 2729, 2729, 2729, 2729, 2729, 2729, 2218, 2218, 2218, 2218, 2218, 2218, 2218, 2218, 2218, 2218, 2218, 2218, 2218, 2218, 2218, 2218, 2218, 2218, 2218, 2729, 2729, 2729, 2729, 2729, 2729, 2729, 2729, 2729, 2729, 2729, 2729, 2729, 2729, 2729, 2729, 2729, 2729, 2729, 2729, 2729, 2729, 2729, 2729, 2729, 2729, 2729, 2729, 2729, 9113, 9113, 9113, 9113, 9113, 9113, 9113, 9113, 9113, 9113, 9113, 1695, 1695, 9113, 9113, 9113, 9113, 1166, 2729, 2729, 2729, 2729, 2729, 2729, 2729, 2729, 2729, 2729, 2218, 2218, 2218, 2218, 2218, 2218, 2218, 2218, 2218, 2218, 2218, 2218, 2218, 2218, 2218, 2218, 2218, 2729, 2729, 2729, 2729, 2729, 2729, 2729, 2729, 2729, 2729, 2729, 2729, 2729, 2729, 2729, 2729, 2729, 2729, 2729, 2729, 2729, 2729, 2729, 2729, 2729, 2729, 2729, 2729, 2729, 2729, 9113, 9113, 9113, 9113, 9113, 9113, 9113, 9113, 9113, 9113, 9113, 1695, 1695, 1695, 9113, 9113, 9113, 1166, 2729, 2729, 2729, 2729, 2729, 2729, 2729, 2729, 2729, 2729, 2729, 2729, 2218, 2218, 2218, 2218, 2218, 2218, 2218, 2218, 2218, 2218, 2218, 2218, 2729, 2729, 2729, 2729, 2729, 2729, 2729, 2729, 2729, 2729, 2729, 2729, 2729, 2729, 2729, 2729, 2729, 2729, 2729, 2729, 2729, 2729, 2729, 2729, 2729, 2729, 2729, 2729, 2729, 2729, 2729, 2729, 2729, 9113, 9113, 9113, 9113, 9113, 9113, 9113, 9113, 9113, 9113, 1673, 1673, 1673, 9113, 9113, 9113, 9113, 1166, 2729, 2729, 2729, 2729, 2729, 2729, 2729, 2729, 2729, 2729, 2729, 2729, 2729, 2729, 2729, 2218, 2218, 2218, 2218, 2729, 2729, 2729, 2729, 2729, 2729, 2729, 2729, 2729, 2729, 2729, 2729, 2729, 2729, 2729, 2729, 2729, 2729, 2729, 2729, 2729, 2729, 2729, 2729, 2729, 2729, 2729, 2729, 2729, 2729, 2729, 2729, 2729, 2729, 2729, 2729, 2729, 2729, 9113, 9113, 9113, 9113, 9113, 9113, 9113, 9113, 9113, 9113, 1673, 1673, 1673, 9113, 9113, 9113, 9113, 1166, 2729, 2729, 2729, 2729, 2729, 2729, 2729, 2729, 2729, 2729, 2729, 2729, 2729, 2729, 2729, 2729, 2729, 2729, 2729, 2729, 2729, 2729, 2729, 2729, 2729, 2729, 2729, 2729, 2729, 2729, 2729, 2729, 2729, 2729, 2729, 2729, 2729, 2729, 2729, 2729, 2729, 2729, 2729, 2729, 2729, 2729, 2729, 2729, 2729, 2729, 2729, 2729, 2729, 2729, 2729, 2729, 2729, 9113, 9113, 9113, 9113, 9113, 9113, 9113, 9113, 9113, 1673, 1673, 1673, 1673, 9113, 9113, 9113, 9113, 1166, 2729, 2729, 2729, 2729, 2729, 2729, 2729, 2729, 2729, 2729, 2729, 2729, 2729, 2729, 2729, 2729, 2729, 2729, 2729, 2729, 2729, 2729, 2729, 2729, 2729, 2729, 2729, 2729, 2729, 2729, 2729, 2729, 2729, 2729, 2729, 2729, 2729, 2729, 2729, 2729, 2729, 2729, 2729, 2729, 2729, 2729, 2729, 2729, 2729, 2729, 2729, 2729, 2729, 2729, 2729, 2729, 2729, 9113, 9113, 9113, 9113, 9113, 9113, 9113, 9113, 1673, 1673, 1673, 1673, 9113, 9113, 9113, 9113, 1166, 1166, 2729, 2729, 2729, 2729, 2729, 2729, 2729, 2729, 2729, 2729, 2729, 2729, 2729, 2729, 2729, 2729, 2729, 2729, 2729, 2729, 2729, 2729, 2729, 2729, 2729, 2729, 2729, 2729, 2729, 2729, 2729, 2729, 2729, 2729, 2729, 2729, 2729, 2729, 2729, 2729, 2729, 2729, 2729, 2729, 2729, 2729, 2729, 2729, 2729, 2729, 3261, 2729, 2729, 2729, 2729, 2729, 2729, 9113, 9113, 9113, 9113, 9113, 9113, 9113, 1673, 1673, 1673, 1673, 9113, 9113, 9113, 9113, 9113, 1166, 2729, 2729, 2729, 2729, 2729, 2729, 2729, 2729, 2729, 2729, 2729, 2729, 2729, 2729, 2729, 2729, 2729, 2729, 2729, 2729, 2729, 2729, 2729, 2729, 2729, 2729, 2729, 2729, 2729, 2729, 2729, 2729, 2729, 2729, 2729, 2729, 2729, 2729, 2729, 2729, 2729, 2729, 2729, 2729, 2729, 2729, 2729, 2729, 2729, 3259, 3259, 3259, 3259, 3259, 3259, 2729, 2729, 2729, 9113, 9113, 1145, 1145, 1145, 1145, 1673, 1673, 1673, 1673, 9113, 9113, 9113, 9113, 9113, 9113, 1166, 2729, 2729, 2729, 2729, 2729, 2729, 2729, 2729, 2729, 2729, 2729, 2729, 2729, 2729, 2729, 2729, 2729, 2729, 2729, 2729, 2729, 2729, 2729, 2729, 2729, 2729, 2729, 2729, 2729, 2729, 2729, 2729, 2729, 2729, 2729, 2729, 2729, 2729, 2729, 2729, 2729, 2729, 2729, 2729, 2729, 2729, 2729, 2729, 2729, 3259, 3259, 3259, 3259, 3259, 3259, 3259, 3259, 2729, 1673, 1673, 1673, 1673, 1673, 1673, 1673, 1673, 1673, 9113, 9113, 9113, 9113, 9113, 9113, 1166, 1166, 2729, 2729, 2729, 2729, 2729, 2729, 2729, 2729, 2729, 2729, 2729, 2729, 2729, 2729, 2729, 2729, 2729, 2729, 2729, 2729, 2729, 2729, 2729, 2729, 2729, 2729, 2729, 2729, 2729, 2729, 2729, 2729, 2729, 2729, 2729, 2729, 2729, 2729, 2729, 2729, 2729, 2729, 2729, 2729, 2729, 2729, 2729, 2729, 2729, 3259, 3259, 3259, 3259, 3259, 3259, 3259, 3259, 2729, 1673, 1673, 1673, 1145, 1145, 1673, 1673, 1673, 1673, 9113, 9113, 9113, 9113, 9113, 9113, 1166, 2729, 2729, 2729, 2729, 2729, 2729, 2729, 2729, 2729, 2729, 2729, 2729, 2729, 2729, 2729, 2729, 2729, 2729, 2729, 2729, 2729, 2729, 2729, 2729, 2729, 2729, 2729, 2729, 2729, 2729, 2729, 2729, 2729, 2729, 2729, 2729, 2729, 2729, 2729, 2729, 2729, 2729, 2729, 2729, 2729, 2729, 2729, 2729, 2729, 2729, 2729, 2729, 3259, 3259, 3259, 3259, 3259, 2729, 2729, 1673, 1673, 9113, 1145, 9113, 9113, 9113, 1145, 1673, 9113, 9113, 9113, 9113, 9113, 1166, 1166, 2729, 2729, 2729, 2729, 2729, 2729, 2729, 2729, 2729, 2729, 2729, 2729, 2729, 2729, 2729, 2729, 2729, 2729, 2729, 2729, 2729, 2729, 2729, 2729, 2729, 2729, 2729, 2729, 2729, 2729, 2729, 2729, 2729, 2729, 2729, 2729, 2729, 2729, 2729, 2729, 2729, 2729, 2729, 2729, 2729, 2729, 2729, 2729, 2729, 2729, 2729, 2729, 2729, 2729, 2729, 2729, 2729, 2729, 2729, 1673, 1673, 9113, 1145, 9113, 9113, 9113, 9113, 1673, 9113, 9113, 9113, 9113, 9113, 1166, 2729, 2729, 2729, 2729, 2729, 2729, 2729, 2729, 2729, 2729, 2729, 2729, 2729, 2729, 2729, 2729, 2729, 2729, 2729, 2729, 2729, 2729, 2729, 2729, 2729, 2729, 2729, 2729, 2729, 2729, 2729, 2729, 2729, 2729, 2729, 2729, 2729, 2729, 2729, 2729, 2729, 2729, 2729, 2729, 2729, 2729, 2729, 2729, 2729, 2729, 2729, 2729, 2729, 2729, 2729, 2729, 2729, 2729, 2729, 2729, 1673, 1673, 1673, 1673, 9113, 9113, 1673, 1673, 1673, 9113, 9113, 9113, 9113, 9113, 1166, 2729, 2729, 2729, 2729, 2729, 2729, 2729, 2729, 2729, 2729, 2729, 2729, 2729, 2729, 2729, 2729, 2729, 2729, 2729, 2729, 2729, 2729, 2729, 2729, 2729, 2729, 2729, 2729, 2729, 2729, 2729, 2729, 2729, 2729, 2729, 2729, 2729, 2729, 2729, 2729, 2729, 2729, 2729, 2729, 2729, 2729, 2729, 2729, 2729, 2729, 2729, 2729, 2729, 2729, 2729, 2729, 2729, 2729, 2729, 2729, 1673, 1673, 1673, 1673, 1673, 1673, 1673, 1673, 1673, 9113, 9113, 9113, 9113, 1166, 1166, 2729, 2729, 2729, 2729, 2729, 2729, 2729, 2729, 2729, 2729, 2729, 2729, 2729, 2729, 2729, 2729, 2729, 2729, 2729, 2729, 2729, 2729, 2729, 2729, 2729, 2729, 2729, 2729, 2729, 2729, 2729, 2729, 2729, 2729, 2729, 2729, 2729, 2729, 2729, 2729, 2729, 2729, 2729, 2729, 2729, 2729, 2729, 2729, 2729, 2729, 2729, 2729, 2729, 2729, 2729, 2729, 2729, 2729, 2729, 2729, 1673, 1673, 1673, 1673, 1673, 1673, 1673, 1673, 9113, 9113, 9113, 9113, 1166, 1166, 2729, 2729, 2729, 2729, 2729, 2729, 2729, 2729, 2729, 2729, 2729, 2729, 2729, 2729, 2729, 2729, 2729, 2729, 2729, 2729, 2729, 2729, 2729, 2729, 2729, 2729, 2729, 2729, 2729, 2729, 2729, 2729, 2729, 2729, 2729, 2729, 2729, 2729, 2729, 2729, 2729, 2729, 2729, 2729, 2729, 2729, 2729, 2729, 2729, 2729, 2729, 2729, 2729, 2729, 2729, 2729, 2729, 2729, 2729, 2729, 2729, 9113, 9113, 9113, 9113, 9113, 9113, 9113, 9113, 9113, 9113, 9113, 1166, 1166, 2729, 2729, 2729, 2729, 2729, 2729, 2729, 2729, 2729, 2729, 2729, 2729, 2729, 2729, 2729, 2729, 2729, 2729, 2729, 2729, 2729, 2729, 2729, 2729, 2729, 2729, 2729, 2729, 2729, 2729, 2729, 2729, 2729, 2729, 2729, 2729, 2729, 2729, 2729, 2729, 2729, 2729, 2729, 2729, 2729, 2729, 2729, 2729, 2729, 2729, 2729, 2729, 2729, 2729, 2729, 2729, 2729, 2729, 2729, 2729, 2729, 2729, 9113, 9113, 9113, 9113, 9113, 9113, 9113, 9113, 1166, 1166, 1166, 1166, 2729, 2729, 2729, 2729, 2729, 2729, 2729, 2729, 2729, 2729, 2729, 2729, 2729, 2729, 2729, 2729, 2729, 2729, 2729, 2729, 2729, 2729, 2729, 2729, 2729, 2729, 2729, 2729, 2729, 2729, 2729, 2729, 2729, 2729, 2729, 2729, 2729, 2729, 2729, 2729, 2729, 2729, 2729, 2729, 2729, 2729, 2729, 2729, 2729, 2729, 2729, 2729, 2729, 2729, 2729, 2729, 2729, 2729, 2729, 2729, 2729, 2729, 2729, 1166, 1166, 1166, 1166, 1166, 1166, 1166, 1166, 1166, 2729, 2729, 2729, 2729, 2729, 2729, 2729, 2729, 2729, 2729, 2729, 2729, 2729, 2729, 2729, 2729, 2729, 2729, 2729, 2729, 2729, 2729, 2729, 2729, 2729, 2729, 2729, 2729, 2729, 2729, 2729, 2729, 2729, 2729, 2729, 2729, 2729, 2729, 2729, 2729, 2729, 2729, 2729, 2729, 2729, 2729, 2729, 2729, 2729, 2729, 2729, 2729, 2729, 2729, 2729, 2729, 2729, 2729, 2729, 2729, 2729, 2729, 2729, 2729, 2729, 2729, 2729, 2729, 2729, 2729, 2729, 2729, 2729, 2729, 2729, 2729, 2729, 2729, 2729, 2729, 2729, 2729, 2729, 2729, 2729, 2729, 2729, 2729, 2729, 2729, 2729, 2729, 2729, 2729, 2729, 2729, 2729, 2729, 2729, 2729, 2729, 2729, 2729, 2729, 2729, 2729, 2729, 2729, 2729, 2729, 2729, 2729, 2729, 2729, 2729, 2729, 2729, 2729, 2729, 2729, 2729, 2729, 2729, 2729, 2729, 2729, 2729, 2729, 2729, 2729, 2729, 2729, 2729, 2729, 2729, 2729, 2729, 2729, 2729, 2729, 2729, 2729, 2729, 2729, 2729, 2729, 2729, 2729, 2729, 2729, 2729, 2729, 2729, 2729, 2729, 2729, 2729, 2729, 2729, 2729, 2729, 2729, 2729, 2729, 2729, 2729, 2729, 2729, 2729, 2729, 2729, 2729, 2729, 2729, 2729, 2729, 2729, 2729, 2729, 2729, 2729, 2729, 2729, 2729, 2729, 2729, 2729, 2729, 2729, 2729, 2729, 2729, 2729, 2729, 2729, 2729, 2729, 2729, 2729, 2729, 2729, 2729, 2729, 2729, 2729, 2729, 2729, 2729, 2729, 2729, 2729, 2729, 2729, 2729, 2729, 2729, 2729, 2729, 2729, 2729, 2729, 2729, 2729, 2729, 2729, 2729, 2729, 2729, 2729, 2729, 2729, 2729, 2729, 2729, 2729, 2729, 2729, 2729, 2729, 2729, 2729, 2729, 2729, 2729, 2729, 2729, 2729, 2729, 2729, 2729, 2729, 2729, 2729, 2729, 2729, 2729, 2729, 2729, 2729, 2729, 2729, 2729, 2729, 2729, 2729, 2729, 2729, 2729, 2729, 2729, 2729, 2729, 2729, 2729, 2729, 2729, 2729, 2729, 2729, 2729, 2729, 2729, 2729, 2729, 2729, 2729, 2729, 2729, 2729, 2729, 2729, 2729, 2729, 2729, 2729, 2729, 2729, 2729, 2729, 2729, 2729, 2729, 2729, 2729, 2729, 2729, 2729, 2729, 2729, 2729, 2729, 2729, 2729, 2729, 2729, 2729, 2729, 2729, 2729, 2729, 2729, 2729, 2729, 2729, 2729, 2729, 2729, 2729, 2729, 2729, 2729, 2729, 2729, 2729, 2729, 2729, 2729, 2729, 2729, 2729, 2729, 2729, 2729, 2729, 2729, 2729, 2729, 2729, 2729, 2729, 2729, 2729, 2729, 2729, 2729, 2729, 2729, 2729, 2729, 2729, 2729, 2729, 2729, 2729, 2729, 2729, 2729, 2729, 2729, 2729, 2729, 2729, 2729, 2729, 2729, 2729, 2729, 2729, 2729, 2729, 2729, 2729, 2729, 2729, 2729, 2729, 2729, 2729, 2729, 2729, 2729, 2729, 2729, 2729, 2729, 2729, 2729, 2729, 2729, 2729, 2729, 2729, 2729, 2729, 2729, 2729, 2729, 2729, 2729, 2729, 2729, 2729, 2729, 2729, 2729, 2729, 2729, 2729, 2729, 2729, 2729, 2729, 2729, 2729, 2729, 2729, 2729, 2729, 2729, 2729, 2729, 2729, 2729, 2729, 2729, 2729, 2729, 2729, 2729, 2729, 2729, 2729, 2729, 2729, 2729, 2729, 2729, 2729, 2729, 2729, 2729, 2729, 2729, 2729, 2729, 2729, 2729, 2729, 2729, 2729, 2729, 2729, 2729, 2729, 2729, 2729, 2729, 2729, 2729, 2729, 2729, 2729, 2729, 2729, 2729, 2729, 2729, 2729, 2729, 2729, 2729, 2729, 2729, 2729, 2729, 2729, 2729, 2729, 2729, 2729, 2729, 2729, 2729, 2729, 2729, 2729, 2729, 2729, 2729, 2729, 2729, 2729, 2729, 2729, 2729, 2729, 2729, 2729, 2729, 2729, 2729, 2729, 2729, 2729, 2729, 2729, 2729, 2729, 2729, 2729, 2729, 2729, 2729, 2729, 2729, 2729, 2729, 2729, 2729, 2729, 2729, 2729, 2729, 2729, 2729, 2729, 2729, 2729, 2729, 2729, 2729, 2729, 2729, 2729, 2729, 2729, 2729, 2729, 2729, 2729, 2729, 2729, 2729, 2729, 2729, 2729, 2729, 2729, 2729, 2729, 2729, 2729, 2729, 2729, 2729, 2729, 2729, 2729, 2729, 2729, 2729, 2729, 2729, 2729, 2729, 2729, 2729, 2729, 2729, 2729, 2729, 2729, 2729, 2729, 2729, 2729, 2729, 2729, 2729, 2729, 2729, 2729, 2729, 2729, 2729, 2729, 2729, 2729, 2729, 2729, 2729, 2729, 2729, 2729, 2729, 2729, 2729, 2729, 2729, 2729, 2729, 2729, 2729, 2729, 2729, 2729, 2729, 2729, 2729, 2729, 2729, 2729, 2729, 2729, 2729, 2729, 2729, 2729, 2729, 2729, 2729, 2729, 2729, 2729, 2729, 2729, 2729, 2729, 2729, 2729, 2729, 2729, 2729, 2729, 2729, 2729, 2729, 2729, 2737, 2737, 2737, 2737, 2737, 2737, 2737, 2737, 2737, 2737, 2737, 2737, 2737, 2737, 2737, 2737, 2737, 2737, 2729, 2729, 2729, 2729, 2729, 2729, 2729, 2729, 2729, 2729, 2729, 2729, 2729, 2729, 2729, 2729, 2729, 2729, 2729, 2729, 2729, 2729, 2729, 2729, 2729, 2729, 2729, 2729, 2729, 2729, 2729, 2729, 2729, 2729, 2729, 2729, 2729, 2729, 2729, 2729, 2729, 2729, 2729, 2729, 2729, 2729, 2729, 2729, 2729, 2729, 2729, 2729, 2729, 2729, 2729, 2729, 2737, 2737, 2737, 2737, 2737, 2737, 2737, 2737, 2737, 2737, 2737, 2737, 2737, 2737, 2737, 2737, 2737, 2737, 2737, 2729, 2729, 2729, 2729, 2729, 2729, 2729, 2729, 2729, 2729, 2729, 2729, 2729, 2729, 2729, 2729, 2729, 2729, 2729, 2729, 2729, 2729, 2729, 2729, 2729, 2729, 2729, 2729, 2729, 2729, 2729, 2729, 2729, 2729, 2729, 2729, 2729, 2729, 2729, 2729, 2729, 2729, 2729, 2729, 2729, 2729, 2729, 2729, 2729, 2729, 2729, 2729, 2729, 2729, 2729, 2729, 2737, 2737, 2737, 2737, 2737, 2737, 2737, 2737, 2737, 2737, 2737, 2737, 2737, 2737, 2737, 2737, 2737, 2737, 2737, 2729, 2729, 2729, 2729, 2729, 2729, 2729, 2729, 2729, 2729, 2729, 2729, 2729, 2729, 2729, 2729, 2729, 2729, 2729, 2729, 2729, 2729, 2729, 2729, 2729, 2729, 2729, 2729, 2729, 2729, 2729, 2729, 2729, 2729, 2729, 2729, 2729, 2729, 2729, 2729, 2729, 2729, 2729, 2729, 2729, 2729, 2729, 2729, 2729, 2729, 2729, 2729, 2729, 2729, 2729, 2729, 2737, 2737, 2737, 2737, 2737, 2737, 2737, 2737, 2737, 2737, 2737, 2737, 2737, 2737, 2737, 2737, 2737, 2737, 2737, 2729, 2729, 2729, 2729, 2729, 2729, 2729, 2729, 2729, 2729, 2729, 2729, 2729, 2729, 2729, 2729, 2729, 2729, 2729, 2729, 2729, 2729, 2729, 2729, 2729, 2729, 2729, 2729, 2729, 2729, 2729, 2729, 2729, 2729, 2729, 2729, 2729, 2729, 2729, 2729, 2729, 2729, 2729, 2729, 2729, 2729, 2729, 2729, 2729, 2729, 2729, 2729, 2729, 2729, 2729, 2729, 2737, 2737, 2737, 2737, 2737, 2737, 2737, 2737, 2737, 2737, 2737, 2737, 2737, 2737, 2737, 2737, 2737, 2737, 2737, 2729, 2729, 2729, 2729, 2729, 2729, 2729, 2729, 2729, 2729, 2729, 2729, 2729, 2729, 2729, 2729, 2729, 2729, 2729, 2729, 2729, 2729, 2729, 2729, 2729, 2729, 2729, 2729, 2729, 2729, 2729, 2729, 2729, 2729, 2729, 2729, 2729, 2729, 2729, 2729, 2729, 2729, 2729, 2729, 2729, 2729, 2729, 2729, 2729, 2729, 2729, 2729, 2729, 2729, 2729, 2218, 2218, 2218, 2218, 2218, 2218, 2218, 2218, 2218, 2218, 2218, 2218, 2218, 2218, 2218, 2218, 2218, 2218, 2218, 2218, 2729, 2729, 2729, 2729, 2729, 2729, 2729, 2729, 2729, 2729, 2729, 2729, 2729, 2729, 2729, 2729, 2729, 2729, 2729, 2729, 2729, 2729, 2729, 2729, 2729, 2729, 2729, 2729, 2729, 2729, 2729, 2729, 2729, 2729, 2729, 2729, 2729, 2729, 2729, 2729, 2729, 2729, 2729, 2729, 2729, 2729, 2729, 2729, 2729, 2729, 2729, 2729, 2729, 2729, 2729, 2218, 2218, 2218, 2218, 2218, 2218, 2218, 2218, 2218, 2218, 2218, 2218, 2218, 2218, 2218, 2218, 2218, 2218, 2218, 2218, 2729, 2729, 2729, 2729, 2729, 2729, 2729, 2729, 2729, 2729, 2729, 2729, 2729, 2729, 2729, 2729, 2729, 2729, 2729, 2729, 2729, 2729, 2729, 2729, 2729, 2729, 2729, 2729, 2729, 2729, 2729, 2729, 2729, 2729, 2729, 2729, 2729, 2729, 2729, 2729, 2729, 2729, 2729, 2729, 2729, 2729, 2729, 2729, 2729, 2729, 2729, 2729, 2729, 2729, 2729, 2729, 2737, 2737, 2737, 2737, 2737, 2737, 2737, 2737, 2737, 2737, 2737, 2737, 2737, 2737, 2737, 2737, 2737, 2737, 2737, 2729, 2729, 2729, 2729, 2729, 2729, 2729, 2729, 2729, 2729, 2729, 2729, 2729, 2729, 2729, 2729, 2729, 2729, 2729, 2729, 2729, 2729, 2729, 2729, 2729, 2729, 2729, 2729, 2729, 2729, 2729, 2729, 2729, 2729, 2729, 2729, 2729, 2729, 2729, 2729, 2729, 2729, 2729, 2729, 2729, 2729, 2729, 2729, 2729, 2729, 2729, 2729, 2729, 2729, 2729, 2729, 2737, 2737, 2737, 2737, 2737, 2737, 2737, 2737, 2737, 2737, 2737, 2737, 2737, 2737, 2737, 2737, 2737, 2737, 2737, 2729, 2729, 2729, 2729, 2729, 2729, 2729, 2729, 2729, 2729, 2729, 2729, 2729, 2729, 2729, 2729, 2729, 2729, 2729, 2729, 2729, 2729, 2729, 2729, 2729, 2729, 2729, 2729, 2729, 2729, 2729, 2729, 2729, 2729, 2729, 2729, 2729, 2729, 2729, 2729, 2729, 2729, 2729, 2729, 2729, 2729, 2729, 2729, 2729, 2729, 2729, 2729, 2729, 2729, 2729, 2729, 2737, 2737, 2737, 2737, 2737, 2737, 2737, 2737, 2737, 2737, 2737, 2737, 2737, 2737, 2737, 2737, 2737, 2737, 2737, 2729, 2729, 2729, 2729, 2729, 2729, 2729, 2729, 2729, 2729, 2729, 2729, 2729, 2729, 2729, 2729, 2729, 2729, 2729, 2729, 2729, 2729, 2729, 2729, 2729, 2729, 2729, 2729, 2729, 2729, 2729, 2729, 2729, 2729, 2729, 2729, 2729, 2729, 2729, 2729, 2729, 2729, 2729, 2729, 2729, 2729, 2729, 2729, 2729, 2729, 2729, 2729, 2729, 2729, 2729, 2729, 2737, 2737, 2737, 2737, 2737, 2737, 2737, 2737, 2737, 2737, 2737, 2737, 2737, 2737, 2737, 2737, 2737, 2737, 2737, 2729, 2729, 2729, 2729, 2729, 2729, 2729, 2729, 2729, 2729, 2729, 2729, 2729, 2729, 2729, 2729, 2729, 2729, 2729, 2729, 2729, 2729, 2729, 2729, 2729, 2729, 2729, 2729, 2729, 2729, 2729, 2729, 2729, 2729, 2729, 2729, 2729, 2729, 2729, 2729, 2729, 2729, 2729, 2729, 2729, 2729, 2729, 2729, 2729, 2729, 2729, 2729, 2729, 2729, 2729, 2729, 2737, 2737, 2737, 2737, 2737, 2737, 2737, 2737, 2737, 2737, 2737, 2737, 2737, 2737, 2737, 2737, 2737, 2737, 2737, 2729, 2729, 2729, 2729, 2729, 2729, 2729, 2729, 2729, 2729, 2729, 2729, 2729, 2729, 2729, 2729, 2729, 2729, 2729, 2729, 2729, 2729, 2729, 2729, 2729, 2729, 2729, 2729, 2729, 2729, 2729, 2729, 2729, 2729, 2729, 2729, 2729, 2729, 2729, 2729, 2729, 2729, 2729, 2729, 2729, 2729, 2729, 2729, 2729, 2729, 2729, 2729, 2729, 2729, 2729, 2729, 2737, 2737, 2737, 2737, 2737, 2737, 2737, 2737, 2737, 2737, 2737, 2737, 2737, 2737, 2737, 2737, 2737, 2737, 2737],
         "height":45,
         "id":1,
         "name":"Capa de patrones 1",
         "opacity":1,
         "type":"tilelayer",
         "visible":true,
         "width":75,
         "x":0,
         "y":0
        }, 
        {
         "data":[6415, 6416, 6417, 6418, 6419, 6420, 6421, 6422, 6423, 0, 0, 0, 0, 0, 0, 0, 0, 0, 0, 0, 0, 0, 0, 68, 69, 70, 71, 1639, 1640, 1641, 0, 0, 1099, 1100, 1101, 1102, 1103, 1104, 1105, 0, 0, 1637, 1638, 1639, 1640, 1641, 68, 69, 70, 71, 0, 0, 0, 0, 0, 0, 0, 0, 0, 0, 0, 0, 0, 0, 0, 0, 0, 0, 0, 0, 0, 0, 0, 0, 0, 6945, 6946, 6947, 6948, 6949, 6950, 6951, 6952, 6953, 0, 0, 0, 0, 0, 0, 0, 0, 0, 0, 0, 0, 0, 0, 598, 599, 600, 601, 2169, 2170, 2171, 0, 0, 1629, 1630, 1631, 1632, 1633, 1634, 1635, 0, 0, 2167, 2168, 2169, 2170, 2171, 598, 599, 600, 601, 0, 0, 0, 0, 0, 0, 0, 0, 0, 0, 0, 0, 0, 0, 0, 0, 0, 0, 0, 0, 0, 0, 0, 0, 0, 7475, 7476, 7477, 7478, 7479, 7480, 7481, 7482, 7483, 0, 0, 0, 0, 0, 0, 0, 0, 0, 0, 0, 0, 0, 0, 1128, 1129, 1130, 1131, 2699, 2700, 2701, 0, 0, 2159, 2160, 2161, 2162, 2163, 2164, 2165, 0, 0, 2697, 2698, 2699, 2700, 2701, 1128, 1129, 1130, 1131, 0, 0, 0, 0, 0, 0, 0, 0, 0, 0, 0, 0, 0, 0, 0, 0, 0, 0, 0, 0, 0, 0, 0, 0, 0, 8005, 8006, 8007, 8008, 8009, 8010, 8011, 8012, 8013, 0, 0, 0, 0, 0, 0, 0, 0, 0, 0, 0, 0, 0, 0, 1658, 1659, 1660, 1661, 3229, 3230, 3231, 0, 0, 2689, 2690, 2691, 2692, 2693, 2694, 2695, 6939, 0, 3227, 3228, 3229, 3230, 3231, 1658, 1659, 1660, 1661, 0, 0, 0, 0, 0, 0, 0, 0, 0, 0, 0, 0, 0, 0, 0, 0, 0, 0, 0, 0, 0, 0, 0, 0, 0, 8535, 8536, 8537, 8538, 8539, 8540, 8541, 8542, 8543, 0, 0, 0, 0, 0, 0, 0, 0, 0, 0, 0, 0, 0, 0, 0, 0, 3757, 3758, 3759, 3760, 3761, 0, 0, 3219, 3220, 3221, 3222, 3223, 3224, 3225, 7469, 0, 3757, 3758, 3759, 3760, 3761, 0, 0, 0, 0, 0, 0, 0, 0, 0, 0, 0, 0, 0, 0, 0, 0, 0, 0, 0, 0, 0, 0, 0, 0, 0, 0, 0, 0, 0, 9065, 9066, 9067, 9068, 9069, 9070, 9071, 9072, 9073, 0, 0, 0, 0, 0, 0, 0, 0, 0, 0, 0, 0, 0, 0, 0, 0, 0, 0, 0, 0, 0, 0, 0, 0, 0, 0, 0, 0, 0, 0, 7999, 0, 0, 0, 0, 0, 0, 0, 0, 9579, 9580, 9581, 9582, 9583, 9584, 9585, 0, 0, 0, 0, 0, 0, 0, 0, 0, 0, 0, 0, 27, 28, 29, 30, 0, 0, 0, 0, 9595, 9596, 9597, 9598, 9599, 9600, 9601, 9602, 9603, 0, 0, 0, 0, 0, 0, 0, 0, 0, 0, 0, 0, 0, 0, 0, 0, 0, 0, 0, 0, 0, 0, 0, 0, 0, 0, 0, 0, 0, 0, 0, 0, 0, 0, 0, 0, 0, 0, 0, 10109, 10110, 10111, 10112, 10113, 10114, 10115, 0, 0, 0, 0, 0, 0, 0, 0, 0, 0, 0, 0, 557, 558, 559, 560, 0, 0, 0, 0, 10125, 10126, 10127, 10128, 10129, 10130, 10131, 10132, 10133, 0, 0, 0, 0, 0, 0, 0, 0, 0, 0, 0, 0, 0, 0, 0, 0, 0, 0, 0, 0, 0, 0, 0, 0, 0, 0, 0, 0, 0, 0, 0, 0, 0, 0, 0, 0, 0, 0, 0, 10639, 10640, 10641, 10642, 10643, 10644, 10645, 0, 0, 0, 0, 0, 0, 0, 0, 0, 0, 0, 8, 9, 10, 11, 12, 13, 0, 0, 0, 10655, 10656, 10657, 10658, 10659, 10660, 10661, 10662, 10663, 0, 0, 0, 0, 0, 0, 0, 0, 0, 0, 0, 0, 0, 0, 0, 0, 0, 0, 0, 0, 0, 0, 0, 0, 0, 0, 0, 0, 0, 0, 0, 0, 0, 0, 0, 0, 0, 0, 0, 11169, 11170, 11171, 11172, 11173, 11174, 11175, 0, 0, 0, 0, 0, 0, 0, 0, 0, 0, 0, 538, 539, 540, 541, 542, 543, 0, 0, 0, 11185, 11186, 11187, 11188, 11189, 11190, 11191, 11192, 11193, 0, 0, 0, 0, 0, 0, 0, 0, 0, 0, 0, 0, 0, 0, 0, 0, 0, 0, 0, 0, 0, 0, 0, 0, 0, 0, 0, 0, 0, 0, 0, 0, 0, 0, 0, 0, 0, 0, 0, 11699, 11700, 11701, 11702, 11703, 11704, 11705, 0, 0, 0, 0, 0, 0, 0, 0, 0, 0, 0, 1068, 1069, 1070, 1071, 1072, 1073, 0, 0, 0, 11715, 11716, 11717, 11718, 11719, 11720, 11721, 11722, 11723, 0, 0, 0, 0, 0, 0, 0, 0, 0, 0, 0, 0, 0, 0, 0, 0, 0, 0, 0, 0, 0, 0, 0, 0, 0, 0, 0, 0, 0, 0, 0, 0, 0, 0, 0, 0, 0, 0, 0, 0, 0, 0, 0, 2731, 0, 0, 0, 0, 0, 0, 0, 0, 0, 0, 0, 0, 0, 1598, 1599, 1600, 1601, 1602, 1603, 0, 0, 0, 12245, 12246, 12247, 12248, 12249, 12250, 12251, 12252, 12253, 0, 0, 0, 0, 0, 0, 0, 0, 0, 0, 0, 0, 0, 0, 0, 0, 0, 0, 0, 0, 0, 0, 0, 0, 0, 0, 0, 0, 0, 0, 0, 0, 0, 0, 0, 0, 0, 0, 0, 0, 0, 0, 0, 2731, 0, 0, 0, 0, 0, 0, 0, 0, 0, 0, 0, 0, 0, 2128, 2129, 2130, 2131, 2132, 2133, 0, 0, 0, 12775, 12776, 12777, 12778, 12779, 12780, 12781, 12782, 12783, 0, 0, 0, 0, 0, 0, 0, 0, 0, 0, 0, 0, 0, 0, 0, 0, 0, 0, 0, 0, 0, 0, 0, 0, 0, 0, 0, 0, 0, 0, 0, 0, 0, 0, 0, 0, 0, 0, 2731, 2731, 2731, 2731, 2731, 2731, 0, 0, 0, 0, 0, 0, 0, 0, 0, 0, 0, 0, 0, 2658, 2659, 2660, 2661, 2662, 2663, 0, 0, 0, 13305, 13306, 13307, 13308, 13309, 13310, 13311, 13312, 13313, 0, 0, 0, 0, 0, 0, 0, 0, 0, 0, 0, 0, 0, 0, 0, 0, 0, 0, 0, 0, 0, 0, 0, 0, 0, 0, 0, 0, 0, 0, 0, 0, 0, 0, 0, 0, 0, 2731, 2731, 0, 0, 0, 0, 0, 0, 0, 0, 0, 0, 0, 0, 0, 0, 0, 0, 0, 0, 3188, 3189, 3190, 3191, 3192, 3193, 0, 0, 0, 13835, 13836, 13837, 13838, 13839, 13840, 13841, 13842, 13843, 0, 0, 0, 0, 0, 0, 0, 0, 0, 0, 0, 0, 0, 0, 0, 0, 0, 0, 0, 0, 0, 0, 0, 0, 0, 0, 0, 0, 0, 0, 0, 0, 0, 0, 0, 0, 2731, 2731, 0, 0, 0, 0, 0, 0, 0, 0, 0, 0, 0, 0, 0, 0, 0, 0, 0, 0, 0, 3718, 3719, 3720, 3721, 3722, 3723, 0, 0, 0, 14365, 14366, 14367, 14368, 14369, 14370, 14371, 14372, 14373, 0, 0, 0, 0, 0, 0, 0, 0, 0, 0, 0, 0, 0, 0, 0, 0, 0, 0, 0, 0, 0, 0, 0, 0, 0, 0, 0, 0, 0, 0, 0, 0, 0, 0, 0, 2731, 2731, 0, 0, 0, 0, 0, 0, 0, 0, 0, 0, 0, 0, 0, 0, 0, 0, 0, 0, 0, 0, 4248, 4249, 4250, 4251, 4252, 4253, 0, 0, 0, 14895, 14896, 14897, 14898, 14899, 14900, 14901, 14902, 14903, 0, 0, 0, 0, 0, 0, 0, 0, 0, 0, 0, 0, 0, 0, 0, 0, 0, 0, 0, 0, 0, 0, 0, 0, 0, 0, 0, 0, 0, 0, 0, 0, 0, 0, 0, 2731, 0, 0, 0, 9579, 9580, 9581, 9582, 9583, 9584, 9585, 0, 0, 0, 0, 0, 0, 0, 0, 0, 0, 0, 0, 0, 0, 0, 0, 0, 0, 0, 0, 15425, 15426, 15427, 15428, 15429, 15430, 15431, 15432, 15433, 0, 0, 0, 0, 0, 0, 0, 0, 0, 0, 0, 0, 0, 0, 0, 0, 0, 0, 0, 0, 0, 0, 0, 0, 0, 0, 0, 0, 0, 0, 0, 0, 0, 0, 2731, 2731, 0, 0, 0, 10109, 10110, 10111, 10112, 10113, 10114, 10115, 0, 0, 0, 0, 0, 0, 0, 0, 0, 0, 0, 0, 0, 0, 0, 0, 0, 0, 0, 0, 15955, 15956, 15957, 15958, 15959, 15960, 15961, 15962, 15963, 0, 0, 0, 0, 0, 0, 0, 0, 0, 0, 0, 0, 0, 0, 0, 0, 0, 0, 0, 0, 0, 0, 0, 0, 0, 0, 0, 0, 0, 0, 0, 0, 0, 0, 2731, 0, 0, 0, 0, 10639, 10640, 10641, 10642, 10643, 10644, 10645, 0, 0, 0, 0, 0, 0, 0, 0, 0, 0, 0, 0, 0, 0, 0, 0, 0, 0, 0, 0, 16485, 16486, 16487, 16488, 16489, 16490, 16491, 16492, 16493, 0, 0, 0, 0, 0, 0, 0, 0, 0, 0, 0, 0, 0, 0, 0, 0, 0, 0, 0, 0, 0, 0, 0, 0, 0, 0, 0, 0, 0, 0, 0, 0, 0, 2731, 2731, 0, 0, 0, 0, 11169, 11170, 11171, 11172, 11173, 11174, 11175, 0, 0, 0, 0, 0, 0, 0, 0, 0, 0, 0, 0, 0, 0, 0, 0, 0, 0, 0, 0, 17015, 17016, 17017, 17018, 17019, 17020, 17021, 17022, 17023, 0, 0, 0, 0, 0, 0, 0, 0, 0, 0, 0, 0, 0, 0, 0, 0, 0, 0, 0, 0, 0, 0, 0, 0, 0, 0, 0, 0, 0, 0, 0, 0, 0, 2731, 0, 0, 0, 0, 0, 11699, 11700, 11701, 11702, 11703, 11704, 11705, 0, 0, 0, 0, 0, 0, 0, 0, 0, 0, 0, 0, 0, 0, 0, 0, 0, 0, 0, 0, 17545, 17546, 17547, 17548, 17549, 17550, 17551, 17552, 17553, 0, 0, 0, 0, 0, 0, 0, 0, 0, 0, 0, 0, 0, 0, 0, 0, 0, 0, 0, 0, 0, 0, 0, 0, 0, 0, 0, 0, 0, 0, 0, 0, 0, 2731, 0, 0, 0, 0, 0, 0, 0, 0, 0, 2731, 0, 0, 0, 0, 0, 0, 0, 0, 0, 0, 0, 0, 0, 0, 0, 0, 0, 0, 0, 0, 0, 0, 0, 0, 0, 0, 0, 0, 0, 0, 0, 0, 0, 0, 0, 0, 0, 0, 0, 0, 0, 0, 0, 0, 0, 0, 0, 0, 0, 0, 0, 0, 0, 0, 0, 0, 0, 0, 0, 0, 0, 0, 0, 2731, 2731, 0, 0, 0, 0, 0, 0, 0, 0, 0, 2731, 0, 0, 0, 0, 0, 0, 0, 0, 0, 0, 0, 0, 0, 0, 0, 0, 0, 0, 0, 0, 0, 0, 0, 0, 0, 0, 0, 0, 0, 0, 0, 0, 0, 0, 0, 0, 0, 0, 0, 0, 0, 0, 0, 0, 0, 0, 0, 0, 0, 0, 0, 0, 0, 0, 0, 0, 0, 0, 0, 0, 0, 0, 0, 2731, 2731, 2731, 2731, 2731, 2731, 2731, 2731, 2731, 2731, 2731, 2731, 0, 0, 0, 0, 0, 0, 0, 0, 0, 0, 0, 0, 0, 0, 0, 0, 0, 0, 0, 0, 0, 0, 11682, 11683, 11684, 11685, 11686, 0, 0, 0, 0, 0, 0, 0, 0, 0, 0, 0, 0, 0, 0, 0, 0, 0, 0, 0, 0, 0, 0, 0, 0, 0, 0, 0, 0, 0, 0, 0, 0, 0, 0, 0, 2731, 2731, 2731, 0, 0, 0, 0, 0, 0, 0, 0, 0, 0, 0, 0, 0, 0, 0, 0, 0, 0, 0, 0, 0, 0, 0, 0, 0, 0, 0, 0, 0, 0, 0, 0, 12212, 12213, 12214, 12215, 12216, 0, 0, 0, 0, 0, 0, 0, 0, 0, 0, 0, 0, 0, 0, 0, 0, 0, 0, 0, 0, 0, 0, 0, 0, 0, 0, 0, 0, 0, 0, 0, 0, 0, 0, 0, 2731, 2731, 2731, 0, 0, 0, 0, 0, 12758, 12759, 12760, 12761, 12762, 12763, 12764, 10609, 10610, 10611, 10612, 10609, 10610, 10611, 10612, 10609, 10610, 10611, 10612, 10609, 10610, 10611, 10612, 10609, 10610, 10611, 10612, 12742, 12743, 12744, 12745, 12746, 0, 0, 0, 0, 0, 0, 0, 0, 0, 0, 0, 0, 0, 0, 0, 0, 0, 0, 0, 0, 0, 0, 0, 0, 0, 0, 0, 0, 0, 0, 0, 0, 0, 0, 0, 2731, 2731, 0, 0, 0, 0, 0, 0, 13288, 13289, 13290, 13291, 13292, 13293, 13294, 11139, 11140, 11141, 11142, 11139, 11140, 11141, 11142, 11139, 11140, 11141, 11142, 11139, 11140, 11141, 11142, 11139, 11140, 11141, 11142, 13272, 13273, 13274, 13275, 13276, 0, 0, 0, 0, 0, 8545, 8546, 8547, 8548, 8549, 8550, 8551, 8552, 8553, 8554, 8555, 8556, 8557, 8558, 8559, 8560, 8561, 8562, 0, 0, 0, 0, 0, 0, 0, 0, 0, 0, 0, 0, 2731, 2731, 0, 0, 0, 0, 0, 0, 13818, 13819, 13820, 13821, 13822, 13823, 13824, 11669, 11670, 11671, 11672, 11669, 11670, 11671, 11672, 11669, 11670, 11671, 11672, 11669, 11670, 11671, 11672, 11669, 11670, 11671, 11672, 13802, 13803, 13804, 13805, 13806, 0, 0, 0, 0, 0, 9075, 9076, 9077, 9078, 9079, 9080, 9081, 9082, 9083, 9084, 9085, 9086, 9087, 9088, 9089, 9090, 9091, 9092, 0, 0, 0, 0, 0, 0, 0, 0, 0, 0, 0, 0, 2731, 2731, 0, 0, 0, 0, 0, 0, 14348, 14349, 14350, 14351, 14352, 14353, 14354, 12199, 12200, 12201, 12202, 12199, 12200, 12201, 12202, 12199, 12200, 12201, 12202, 12199, 12200, 12201, 12202, 12199, 12200, 12201, 12202, 11682, 11683, 11684, 11685, 11686, 0, 0, 0, 0, 0, 9605, 9606, 9607, 9608, 9609, 9610, 9611, 9612, 9613, 9614, 9615, 9616, 9617, 9618, 9619, 9620, 9621, 9622, 0, 0, 0, 0, 0, 0, 0, 0, 0, 0, 0, 0, 2731, 2731, 0, 0, 0, 0, 0, 0, 14878, 14879, 14880, 14881, 14882, 14883, 14884, 12729, 12730, 12731, 12732, 12729, 12730, 12731, 12732, 12729, 12730, 12731, 12732, 12729, 12730, 12731, 12732, 12729, 12730, 12731, 12732, 12212, 12213, 12214, 12215, 12216, 0, 0, 0, 0, 0, 10135, 10136, 10137, 10138, 10139, 10140, 10141, 10142, 10143, 10144, 10145, 10146, 10147, 10148, 10149, 10150, 10151, 10152, 0, 0, 0, 0, 0, 0, 0, 0, 0, 0, 0, 0, 2731, 2731, 2731, 2731, 2731, 2731, 2731, 2731, 2731, 2731, 2731, 2731, 2731, 15413, 15414, 13259, 13260, 13261, 13262, 13259, 13260, 13261, 13262, 13259, 13260, 13261, 13262, 13259, 13260, 13261, 13262, 13259, 13260, 13261, 13262, 12742, 12743, 12744, 12745, 12746, 0, 0, 0, 0, 0, 10665, 10666, 10667, 10668, 10669, 10670, 10671, 10672, 10673, 10674, 10675, 10676, 10677, 10678, 10679, 10680, 10681, 10682, 0, 0, 0, 0, 0, 0, 0, 0, 0, 0, 0, 0, 2731, 2731, 0, 0, 0, 0, 0, 0, 0, 0, 0, 0, 0, 0, 0, 13789, 13790, 13791, 13792, 13789, 13790, 13791, 13792, 13789, 13790, 13791, 13792, 13789, 13790, 13791, 13792, 13789, 13790, 13791, 13792, 13272, 13273, 13274, 13275, 13276, 0, 0, 0, 0, 0, 11195, 11196, 11197, 11198, 11199, 11200, 11201, 11202, 11203, 11204, 11205, 11206, 11207, 11208, 11209, 11210, 11211, 11212, 0, 0, 0, 0, 0, 0, 0, 0, 0, 0, 0, 0, 2731, 2731, 0, 0, 0, 0, 0, 0, 11682, 11683, 11684, 11685, 11682, 11683, 11684, 11685, 0, 0, 0, 0, 0, 0, 0, 4861, 0, 0, 0, 4861, 0, 0, 0, 4861, 0, 0, 0, 13802, 13803, 13804, 13805, 13806, 0, 0, 0, 0, 0, 11725, 11726, 11727, 11728, 11729, 11730, 11731, 11732, 11733, 11734, 11735, 11736, 11737, 11738, 11739, 11740, 11741, 11742, 0, 0, 0, 0, 0, 0, 0, 0, 0, 0, 0, 0, 2731, 2731, 0, 0, 0, 0, 0, 0, 12212, 12213, 12214, 12215, 12212, 12213, 12214, 12215, 0, 0, 0, 0, 0, 4327, 0, 5391, 0, 4327, 0, 5391, 0, 4327, 0, 5391, 0, 4327, 0, 11682, 11683, 11684, 11685, 11686, 0, 0, 0, 0, 0, 12255, 12256, 12257, 12258, 12259, 12260, 12261, 12262, 12263, 12264, 12265, 12266, 12267, 12268, 12269, 12270, 12271, 12272, 0, 0, 0, 0, 0, 0, 0, 0, 0, 0, 0, 0, 2731, 2731, 0, 0, 0, 0, 0, 0, 12742, 12743, 12744, 12745, 12742, 12743, 12744, 12745, 0, 0, 0, 0, 0, 4857, 0, 5921, 0, 4857, 0, 5921, 0, 4857, 0, 5921, 0, 4857, 0, 12212, 12213, 12214, 12215, 12216, 0, 0, 0, 0, 0, 12785, 12786, 12787, 12788, 12789, 12790, 12791, 12792, 12793, 12794, 12795, 12796, 12797, 12798, 12799, 12800, 12801, 12802, 0, 0, 0, 0, 0, 0, 0, 0, 0, 0, 0, 0, 2731, 2731, 0, 0, 0, 0, 0, 0, 13272, 13273, 13274, 13275, 13272, 13273, 13274, 13275, 0, 0, 0, 0, 0, 0, 0, 0, 0, 0, 0, 0, 0, 0, 0, 0, 0, 0, 0, 12742, 12743, 12744, 12745, 12746, 0, 0, 0, 0, 0, 13315, 13316, 13317, 13318, 13319, 13320, 13321, 13322, 13323, 13324, 13325, 13326, 13327, 13328, 13329, 13330, 13331, 13332, 0, 0, 0, 0, 0, 0, 0, 0, 0, 0, 0, 0, 2731, 2731, 0, 0, 0, 0, 0, 0, 13802, 13803, 13804, 13805, 13802, 13803, 13804, 13805, 0, 0, 0, 0, 0, 0, 0, 0, 0, 0, 0, 0, 0, 0, 0, 0, 0, 0, 0, 13272, 13273, 13274, 13275, 13276, 0, 0, 0, 0, 0, 13845, 13846, 13847, 13848, 13849, 13850, 13851, 13852, 13853, 13854, 13855, 13856, 13857, 13858, 13859, 13860, 13861, 13862, 0, 0, 0, 0, 0, 0, 0, 0, 0, 0, 0, 0, 2731, 2731, 0, 0, 0, 0, 0, 0, 0, 0, 0, 0, 0, 0, 0, 0, 0, 0, 0, 0, 0, 0, 0, 0, 0, 0, 0, 0, 0, 0, 0, 0, 0, 0, 0, 13802, 13803, 13804, 13805, 13806, 0, 0, 0, 0, 0, 14375, 14376, 14377, 14378, 14379, 14380, 14381, 14382, 14383, 14384, 14385, 14386, 14387, 14388, 14389, 14390, 14391, 14392, 0, 0, 0, 0, 0, 0, 0, 0, 0, 0, 0, 0, 2731, 2731, 0, 0, 0, 0, 0, 0, 0, 0, 0, 0, 0, 0, 0, 0, 0, 0, 0, 0, 0, 0, 0, 0, 0, 0, 0, 0, 0, 0, 0, 0, 0, 0, 0, 11682, 11683, 11684, 11685, 11686, 0, 0, 0, 0, 0, 14905, 14906, 14907, 14908, 14909, 14910, 14911, 14912, 14913, 14914, 14915, 14916, 14917, 14918, 14919, 14920, 14921, 14922, 0, 0, 0, 0, 0, 0, 0, 0, 0, 0, 0, 0, 2731, 2731, 0, 0, 0, 0, 0, 0, 11682, 11683, 11684, 11685, 11682, 11683, 11684, 11685, 0, 0, 0, 0, 0, 0, 0, 0, 0, 0, 0, 0, 0, 0, 0, 0, 0, 0, 0, 12212, 12213, 12214, 12215, 12216, 11682, 11683, 11684, 11685, 11686, 15435, 15436, 15437, 15438, 15439, 15440, 15441, 15442, 2731, 2731, 15445, 15446, 15447, 15448, 15449, 15450, 15451, 15452, 0, 0, 0, 0, 0, 0, 0, 0, 0, 0, 0, 0, 2731, 2731, 0, 0, 0, 0, 0, 0, 12212, 12213, 12214, 12215, 12212, 12213, 12214, 12215, 0, 0, 0, 0, 0, 0, 0, 4861, 0, 0, 0, 4861, 0, 0, 0, 4861, 0, 0, 0, 12742, 12743, 12744, 12745, 12746, 12212, 12213, 12214, 12215, 12216, 0, 0, 0, 0, 0, 0, 0, 0, 2731, 2731, 0, 0, 0, 0, 0, 0, 0, 0, 0, 0, 0, 0, 0, 0, 0, 0, 0, 0, 0, 0, 2731, 2731, 0, 0, 0, 0, 0, 0, 12742, 12743, 12744, 12745, 12742, 12743, 12744, 12745, 0, 0, 0, 0, 0, 4327, 0, 5391, 0, 4327, 0, 5391, 0, 4327, 0, 5391, 0, 4327, 0, 13272, 13273, 13274, 13275, 13276, 12742, 12743, 12744, 12745, 12746, 0, 0, 0, 0, 0, 0, 0, 0, 2731, 2731, 2731, 2731, 2731, 2731, 2731, 2731, 2731, 2731, 2731, 2731, 2731, 2731, 2731, 2731, 2731, 2731, 2731, 2731, 2731, 2731, 2731, 2731, 0, 0, 0, 0, 0, 0, 13272, 13273, 13274, 13275, 13272, 13273, 13274, 13275, 0, 0, 0, 0, 0, 4857, 0, 5921, 0, 4857, 0, 5921, 0, 4857, 0, 5921, 0, 4857, 0, 13802, 13803, 13804, 13805, 13806, 13272, 13273, 13274, 13275, 13276, 0, 0, 0, 0, 0, 0, 0, 0, 2731, 2731, 2731, 2731, 2731, 2731, 2731, 2731, 2731, 2731, 2731, 2731, 2731, 2731, 2731, 2731, 2731, 2731, 2731, 2731, 2731, 2731, 2731, 2731, 0, 0, 0, 0, 0, 0, 13802, 13803, 13804, 13805, 13802, 13803, 13804, 13805, 0, 0, 0, 0, 0, 0, 0, 0, 0, 0, 0, 0, 0, 0, 0, 0, 0, 0, 0, 0, 0, 0, 0, 0, 13802, 13803, 13804, 13805, 13806, 0, 0, 0, 0, 0, 0, 0, 0, 0, 0, 0, 0, 0, 0, 0, 0, 0, 0, 0, 0, 0, 0, 0, 0, 0, 0, 0, 0, 0, 0, 0, 0, 0, 0, 0, 0, 0, 0, 0, 0, 0, 0, 0, 0, 0, 0, 0, 0, 0, 0, 0, 0, 0, 0, 0, 0, 0, 0, 0, 0, 0, 0, 0, 0, 0],
         "height":45,
         "id":2,
         "name":"Capa de patrones 2",
         "opacity":1,
         "type":"tilelayer",
         "visible":true,
         "width":75,
         "x":0,
         "y":0
        }, 
        {
         "data":[18553, 18553, 18553, 18553, 18553, 18553, 18553, 18553, 18553, 18553, 18553, 18553, 18553, 18553, 18553, 18553, 18553, 18553, 18553, 18553, 18553, 18553, 18553, 18553, 18553, 18553, 18553, 18553, 18553, 18553, 18553, 18553, 18553, 18553, 18553, 18553, 18553, 18553, 18553, 18553, 18553, 18553, 18553, 18553, 18553, 18553, 18553, 18553, 18553, 18553, 18553, 18553, 18553, 18553, 18553, 18553, 18553, 18553, 18553, 18553, 18553, 18553, 18553, 18553, 18553, 18553, 18553, 18553, 18553, 18553, 18553, 18553, 18553, 18553, 18553, 18553, 18553, 18553, 18553, 18553, 18553, 18553, 18553, 18553, 18553, 18553, 18553, 18553, 18553, 18553, 18553, 18553, 18553, 18553, 18553, 18553, 18553, 18553, 18553, 18553, 18553, 18553, 18553, 18553, 18553, 18553, 18553, 18553, 18553, 18553, 18553, 18553, 18553, 18553, 18553, 18553, 18553, 18553, 18553, 18553, 18553, 18553, 18553, 18553, 18553, 18553, 18553, 18553, 18553, 18553, 18553, 18553, 18553, 18553, 18553, 18553, 18553, 18553, 18553, 18553, 18553, 18553, 18553, 18553, 18553, 18553, 18553, 18553, 18553, 18553, 18553, 18553, 18553, 18553, 18553, 18553, 18553, 18553, 18553, 18553, 18553, 18553, 18553, 18553, 18553, 18553, 18553, 18553, 18553, 18553, 18553, 18553, 18553, 18553, 18553, 18553, 18553, 18553, 18553, 18553, 18553, 18553, 18553, 18553, 18553, 18553, 18553, 18553, 18553, 18553, 18553, 18553, 18553, 18553, 18553, 18553, 18553, 18553, 18553, 18553, 18553, 18553, 18553, 18553, 18553, 18553, 18553, 18553, 18553, 18553, 18553, 18553, 18553, 18553, 18553, 18553, 18553, 18553, 18553, 18553, 18553, 18553, 18553, 18553, 18553, 18553, 18553, 18553, 18553, 18553, 18553, 18553, 18553, 18553, 18553, 18553, 18553, 18553, 18553, 18553, 18553, 18553, 18553, 18553, 18553, 18553, 18553, 18553, 18553, 18553, 18553, 18553, 18553, 18553, 18553, 18553, 18553, 18553, 18553, 18553, 18553, 18553, 18553, 18553, 18553, 18553, 18553, 18553, 18553, 18553, 18553, 18553, 18553, 18553, 18553, 18553, 18553, 18553, 18553, 18553, 18553, 18553, 18553, 18553, 18553, 18553, 18553, 18553, 18553, 18553, 18553, 18553, 18553, 18553, 18553, 18553, 18553, 18553, 18553, 18553, 18553, 18553, 18553, 18553, 18553, 18553, 18553, 18553, 18553, 18553, 18553, 18553, 18553, 18553, 18553, 18553, 18553, 18553, 18553, 18553, 18553, 18553, 18553, 18553, 18553, 18553, 18553, 18553, 18553, 18553, 18553, 18553, 18553, 18553, 18553, 18553, 18553, 18553, 18553, 18553, 18553, 18553, 18553, 18553, 18553, 18553, 18553, 18553, 18553, 18553, 18553, 18553, 18553, 18553, 18553, 18553, 18553, 18553, 18553, 18553, 18553, 18553, 18553, 18553, 18553, 18553, 18553, 18553, 18553, 18553, 18553, 18553, 18553, 18553, 18553, 18553, 18553, 18553, 18553, 18553, 18553, 18553, 18553, 18553, 18553, 18553, 18553, 18553, 18553, 18553, 18553, 18553, 18553, 18553, 18553, 18553, 18553, 18553, 18553, 18553, 18553, 18553, 18553, 18553, 18553, 18553, 18553, 18553, 18553, 18553, 18553, 18553, 18553, 18553, 18553, 18553, 18553, 18553, 18553, 18553, 18553, 18553, 18553, 18553, 18553, 18553, 18553, 18553, 18553, 18553, 18553, 18553, 18553, 18553, 18553, 18553, 18553, 18553, 18553, 18553, 18553, 18553, 18553, 18553, 18553, 18553, 18553, 18553, 18553, 18553, 18553, 18553, 18553, 18553, 18553, 18553, 18553, 18553, 18553, 18553, 18553, 18553, 18553, 18553, 18553, 18553, 18553, 18553, 18553, 18553, 18553, 18553, 18553, 18553, 18553, 18553, 18553, 18553, 18553, 18553, 18553, 18553, 18553, 18553, 18553, 18553, 18553, 18553, 18553, 18553, 18553, 18553, 18553, 18553, 18553, 18553, 18553, 18553, 18553, 18553, 18553, 18553, 18553, 18553, 18553, 18553, 18553, 18553, 18553, 18553, 18553, 18553, 18553, 18553, 18553, 18553, 18553, 18553, 18553, 18553, 18553, 18553, 18553, 18553, 18553, 18553, 18553, 18553, 18553, 18553, 18553, 18553, 18553, 18553, 18553, 18553, 18553, 18553, 18553, 18553, 18553, 18553, 18553, 18553, 18553, 18553, 18553, 18553, 18553, 18553, 18553, 18553, 18553, 18553, 18553, 18553, 18553, 18553, 18553, 18553, 18553, 18553, 18553, 18553, 18553, 18553, 18553, 18553, 18553, 18553, 18553, 18553, 18553, 18553, 18553, 18553, 18553, 18553, 18553, 18553, 18553, 18553, 18553, 18553, 18553, 18553, 18553, 18553, 18553, 18553, 18553, 18553, 18553, 18553, 18553, 18553, 18553, 18553, 18553, 18553, 18553, 18553, 18553, 18553, 18553, 18553, 18553, 18553, 18553, 18553, 18553, 18553, 18553, 18553, 18553, 18553, 18553, 18553, 18553, 18553, 18553, 18553, 18553, 18553, 18553, 18553, 18553, 18553, 18553, 18553, 18553, 18553, 18553, 18553, 18553, 18553, 18553, 18553, 18553, 18553, 18553, 18553, 18553, 18553, 18553, 18553, 18553, 18553, 18553, 18553, 18553, 18553, 18553, 18553, 18553, 18553, 18553, 18553, 18553, 18553, 18553, 18553, 18553, 18553, 18553, 18553, 18553, 18553, 18553, 18553, 18553, 18553, 18553, 18553, 18553, 18553, 18553, 18553, 18553, 18553, 18553, 18553, 18553, 18553, 18553, 18553, 18553, 18553, 18553, 18553, 18553, 18553, 18553, 18553, 18553, 18553, 18553, 18553, 18553, 18553, 18553, 18553, 18553, 18553, 18553, 18553, 18553, 18553, 18553, 18553, 18553, 18553, 18553, 18553, 18553, 18553, 18553, 18553, 18553, 18553, 18553, 18553, 18553, 18553, 18553, 18553, 18553, 18553, 18553, 18553, 18553, 18553, 18553, 18553, 18553, 18553, 18553, 18553, 18553, 18553, 18553, 18553, 18553, 18553, 18553, 18553, 18553, 18553, 18553, 18553, 18553, 18553, 18553, 18553, 18553, 18553, 18553, 18553, 18553, 18553, 18553, 18553, 18553, 18553, 18553, 18553, 18553, 18553, 2219, 2219, 2219, 2219, 2219, 2219, 2219, 2219, 2219, 2219, 2219, 2219, 2219, 2219, 2219, 2219, 2219, 2219, 2219, 2219, 2219, 2219, 18553, 18553, 18553, 18553, 18553, 18553, 18553, 18553, 18553, 18553, 18553, 18553, 18553, 18553, 18553, 18553, 18553, 18553, 18553, 18553, 18553, 18553, 18553, 18553, 18553, 18553, 18553, 18553, 18553, 18553, 18553, 18553, 18553, 18553, 18553, 18553, 18553, 18553, 18553, 18553, 18553, 18553, 18553, 18553, 18553, 18553, 18553, 18553, 18553, 18553, 18553, 18553, 18553, 18553, 18553, 18553, 18553, 18553, 18553, 18553, 18553, 18553, 18553, 18553, 18553, 18553, 18553, 18553, 18553, 18553, 18553, 18553, 18553, 18553, 2219, 18553, 18553, 18553, 18553, 18553, 18553, 18553, 18553, 18553, 18553, 18553, 18553, 18553, 18553, 18553, 18553, 18553, 18553, 18553, 18553, 18553, 18553, 18553, 18553, 18553, 18553, 18553, 18553, 18553, 18553, 18553, 18553, 18553, 18553, 18553, 18553, 18553, 18553, 18553, 18553, 18553, 18553, 18553, 18553, 18553, 18553, 18553, 18553, 18553, 18553, 18553, 18553, 18553, 18553, 18553, 18553, 18553, 18553, 18553, 18553, 18553, 18553, 18553, 18553, 18553, 18553, 18553, 18553, 18553, 18553, 18553, 18553, 18553, 18553, 2219, 18553, 18553, 18553, 18553, 18553, 18553, 18553, 18553, 18553, 18553, 18553, 18553, 18553, 18553, 18553, 18553, 18553, 18553, 18553, 18553, 18553, 18553, 18553, 18553, 18553, 18553, 18553, 18553, 18553, 18553, 18553, 18553, 18553, 18553, 18553, 18553, 18553, 18553, 18553, 18553, 18553, 18553, 18553, 18553, 18553, 18553, 18553, 18553, 18553, 18553, 18553, 18553, 18553, 18553, 18553, 18553, 18553, 18553, 18553, 18553, 18553, 18553, 18553, 18553, 18553, 18553, 18553, 18553, 18553, 18553, 18553, 18553, 18553, 18553, 2219, 18553, 18553, 18553, 18553, 18553, 18553, 18553, 18553, 18553, 18553, 18553, 18553, 18553, 18553, 18553, 18553, 18553, 18553, 18553, 18553, 18553, 18553, 18553, 18553, 18553, 18553, 18553, 18553, 18553, 18553, 18553, 18553, 18553, 18553, 18553, 18553, 18553, 18553, 18553, 18553, 18553, 18553, 18553, 18553, 18553, 18553, 18553, 18553, 18553, 18553, 18553, 18553, 18553, 18553, 18553, 18553, 18553, 18553, 18553, 18553, 18553, 18553, 18553, 18553, 18553, 18553, 18553, 18553, 18553, 18553, 18553, 18553, 18553, 18553, 2219, 18553, 18553, 18553, 18553, 18553, 18553, 18553, 18553, 18553, 18553, 18553, 18553, 18553, 18553, 18553, 18553, 18553, 18553, 18553, 18553, 18553, 18553, 18553, 18553, 18553, 18553, 18553, 18553, 18553, 18553, 18553, 18553, 18553, 18553, 18553, 18553, 18553, 18553, 18553, 18553, 18553, 18553, 18553, 18553, 18553, 18553, 18553, 18553, 18553, 18553, 18553, 18553, 18553, 18553, 18553, 18553, 18553, 18553, 18553, 18553, 18553, 18553, 18553, 18553, 18553, 18553, 18553, 18553, 18553, 18553, 18553, 18553, 18553, 18553, 2219, 18553, 18553, 18553, 18553, 18553, 18553, 18553, 18553, 18553, 18553, 18553, 18553, 18553, 18553, 18553, 18553, 18553, 18553, 18553, 18553, 18553, 18553, 18553, 18553, 18553, 18553, 18553, 18553, 18553, 18553, 18553, 18553, 18553, 18553, 18553, 18553, 18553, 18553, 18553, 18553, 18553, 18553, 18553, 18553, 18553, 18553, 18553, 18553, 18553, 18553, 18553, 18553, 18553, 18553, 18553, 18553, 18553, 18553, 18553, 18553, 18553, 18553, 18553, 18553, 18553, 18553, 18553, 18553, 18553, 18553, 18553, 18553, 18553, 18553, 2219, 18553, 18553, 18553, 18553, 18553, 18553, 18553, 18553, 18553, 18553, 18553, 18553, 18553, 18553, 18553, 18553, 18553, 18553, 18553, 18553, 18553, 18553, 18553, 18553, 18553, 18553, 18553, 18553, 18553, 18553, 18553, 18553, 18553, 18553, 18553, 18553, 18553, 18553, 18553, 18553, 18553, 18553, 18553, 18553, 18553, 18553, 18553, 18553, 18553, 18553, 18553, 18553, 18553, 18553, 18553, 18553, 18553, 18553, 18553, 18553, 18553, 18553, 18553, 18553, 18553, 18553, 18553, 18553, 18553, 18553, 18553, 18553, 18553, 18553, 2219, 18553, 18553, 18553, 18553, 18553, 18553, 18553, 18553, 18553, 18553, 18553, 18553, 18553, 18553, 18553, 18553, 18553, 18553, 18553, 18553, 18553, 18553, 18553, 18553, 18553, 18553, 18553, 18553, 18553, 18553, 18553, 18553, 18553, 18553, 18553, 18553, 18553, 18553, 18553, 18553, 18553, 18553, 18553, 18553, 18553, 18553, 18553, 18553, 18553, 18553, 18553, 18553, 18553, 18553, 18553, 18553, 18553, 18553, 18553, 18553, 18553, 18553, 18553, 18553, 18553, 18553, 18553, 18553, 18553, 18553, 18553, 18553, 18553, 18553, 2219, 18553, 18553, 18553, 18553, 18553, 18553, 18553, 18553, 18553, 18553, 18553, 18553, 18553, 18553, 18553, 18553, 18553, 18553, 18553, 18553, 18553, 18553, 18553, 18553, 18553, 18553, 18553, 18553, 18553, 18553, 18553, 18553, 18553, 18553, 18553, 18553, 18553, 18553, 18553, 18553, 18553, 18553, 18553, 18553, 18553, 18553, 18553, 18553, 18553, 18553, 18553, 18553, 18553, 18553, 18553, 18553, 18553, 18553, 18553, 18553, 18553, 18553, 18553, 18553, 18553, 18553, 18553, 18553, 18553, 18553, 18553, 18553, 18553, 18553, 2219, 18553, 18553, 18553, 18553, 18553, 18553, 18553, 18553, 18553, 18553, 18553, 18553, 18553, 18553, 18553, 18553, 18553, 18553, 18553, 18553, 18553, 18553, 18553, 18553, 18553, 18553, 18553, 18553, 18553, 18553, 18553, 18553, 18553, 18553, 18553, 18553, 18553, 18553, 18553, 18553, 18553, 18553, 18553, 18553, 18553, 18553, 18553, 18553, 18553, 18553, 18553, 18553, 18553, 18553, 18553, 18553, 18553, 18553, 18553, 18553, 18553, 18553, 18553, 18553, 18553, 18553, 18553, 18553, 18553, 18553, 18553, 18553, 18553, 18553, 2219, 18553, 18553, 18553, 18553, 18553, 18553, 18553, 18553, 18553, 18553, 18553, 18553, 18553, 18553, 18553, 18553, 18553, 18553, 18553, 18553, 18553, 18553, 18553, 18553, 18553, 18553, 18553, 18553, 18553, 18553, 18553, 18553, 18553, 18553, 18553, 18553, 18553, 18553, 18553, 18553, 18553, 18553, 18553, 18553, 18553, 18553, 18553, 18553, 18553, 18553, 18553, 18553, 18553, 18553, 18553, 18553, 18553, 18553, 18553, 18553, 18553, 18553, 18553, 18553, 18553, 18553, 18553, 18553, 18553, 18553, 18553, 18553, 18553, 18553, 2219, 18553, 18553, 18553, 18553, 18553, 18553, 18553, 18553, 18553, 18553, 18553, 18553, 18553, 18553, 18553, 18553, 18553, 18553, 18553, 18553, 18553, 18553, 18553, 18553, 18553, 18553, 18553, 18553, 18553, 18553, 18553, 18553, 18553, 18553, 18553, 18553, 18553, 18553, 18553, 18553, 18553, 18553, 18553, 18553, 18553, 18553, 18553, 18553, 18553, 18553, 18553, 18553, 18553, 18553, 18553, 18553, 18553, 18553, 18553, 18553, 18553, 18553, 18553, 18553, 18553, 18553, 18553, 18553, 18553, 18553, 18553, 18553, 18553, 18553, 2219, 18553, 18553, 18553, 18553, 18553, 18553, 18553, 18553, 18553, 18553, 18553, 18553, 18553, 18553, 18553, 18553, 18553, 18553, 18553, 18553, 18553, 18553, 18553, 18553, 18553, 18553, 18553, 18553, 18553, 18553, 18553, 18553, 18553, 18553, 18553, 18553, 18553, 18553, 18553, 18553, 18553, 18553, 18553, 18553, 18553, 18553, 18553, 18553, 18553, 18553, 18553, 18553, 18553, 18553, 18553, 18553, 18553, 18553, 18553, 18553, 18553, 18553, 18553, 18553, 18553, 18553, 18553, 18553, 18553, 18553, 18553, 18553, 18553, 18553, 2219, 18553, 18553, 18553, 18553, 18553, 18553, 18553, 18553, 18553, 18553, 18553, 18553, 18553, 18553, 18553, 18553, 18553, 18553, 18553, 18553, 18553, 18553, 18553, 18553, 18553, 18553, 18553, 18553, 18553, 18553, 18553, 18553, 18553, 18553, 18553, 18553, 18553, 18553, 18553, 18553, 18553, 18553, 18553, 18553, 18553, 18553, 18553, 18553, 18553, 18553, 18553, 18553, 18553, 18553, 18553, 18553, 18553, 18553, 18553, 18553, 18553, 18553, 18553, 18553, 18553, 18553, 18553, 18553, 18553, 18553, 18553, 18553, 18553, 18553, 2219, 18553, 18553, 18553, 18553, 18553, 18553, 18553, 18553, 18553, 18553, 18553, 18553, 18553, 18553, 18553, 18553, 18553, 18553, 18553, 18553, 18553, 18553, 18553, 18553, 18553, 18553, 18553, 18553, 18553, 18553, 18553, 18553, 18553, 18553, 18553, 18553, 18553, 18553, 18553, 18553, 18553, 18553, 18553, 18553, 18553, 18553, 18553, 18553, 18553, 18553, 18553, 18553, 18553, 18553, 18553, 18553, 18553, 18553, 18553, 18553, 18553, 18553, 18553, 18553, 18553, 18553, 18553, 18553, 18553, 18553, 18553, 18553, 18553, 18553, 2219, 18553, 18553, 18553, 18553, 18553, 18553, 18553, 18553, 18553, 18553, 18553, 18553, 18553, 18553, 18553, 18553, 18553, 18553, 18553, 18553, 18553, 18553, 18553, 18553, 18553, 18553, 18553, 18553, 18553, 18553, 18553, 18553, 18553, 18553, 18553, 18553, 18553, 18553, 18553, 18553, 18553, 18553, 18553, 18553, 18553, 18553, 18553, 18553, 18553, 18553, 18553, 18553, 18553, 18553, 18553, 18553, 18553, 18553, 18553, 18553, 18553, 18553, 18553, 18553, 18553, 18553, 18553, 18553, 18553, 18553, 18553, 18553, 18553, 18553, 2219, 18553, 18553, 18553, 18553, 18553, 18553, 18553, 18553, 18553, 18553, 18553, 18553, 18553, 18553, 18553, 18553, 18553, 18553, 18553, 18553, 18553, 18553, 18553, 18553, 18553, 18553, 18553, 18553, 18553, 18553, 18553, 18553, 18553, 18553, 18553, 18553, 18553, 18553, 18553, 18553, 18553, 18553, 18553, 18553, 18553, 18553, 18553, 18553, 18553, 18553, 18553, 18553, 18553, 18553, 18553, 18553, 18553, 18553, 18553, 18553, 18553, 18553, 18553, 18553, 18553, 18553, 18553, 18553, 18553, 18553, 18553, 18553, 18553, 18553, 2219, 18553, 18553, 18553, 18553, 18553, 18553, 18553, 18553, 18553, 18553, 18553, 18553, 18553, 18553, 18553, 18553, 18553, 18553, 18553, 18553, 18553, 18553, 18553, 18553, 18553, 18553, 18553, 18553, 18553, 18553, 18553, 18553, 18553, 18553, 18553, 18553, 18553, 18553, 18553, 18553, 18553, 18553, 18553, 18553, 18553, 18553, 18553, 18553, 18553, 18553, 18553, 18553, 18553, 18553, 18553, 18553, 18553, 18553, 18553, 18553, 18553, 18553, 18553, 18553, 18553, 18553, 18553, 18553, 18553, 18553, 18553, 18553, 18553, 18553, 2219, 18553, 18553, 18553, 18553, 18553, 18553, 18553, 18553, 18553, 18553, 18553, 18553, 18553, 18553, 18553, 18553, 18553, 18553, 18553, 18553, 18553, 18553, 18553, 18553, 18553, 18553, 18553, 18553, 18553, 18553, 18553, 18553, 18553, 18553, 18553, 18553, 18553, 18553, 18553, 18553, 18553, 18553, 18553, 18553, 18553, 18553, 18553, 18553, 18553, 18553, 18553, 18553, 18553, 18553, 18553, 18553, 18553, 18553, 18553, 18553, 18553, 18553, 18553, 18553, 18553, 18553, 18553, 18553, 18553, 18553, 18553, 18553, 18553, 18553, 2219, 18553, 18553, 18553, 18553, 18553, 18553, 18553, 18553, 18553, 18553, 18553, 18553, 18553, 18553, 18553, 18553, 18553, 18553, 18553, 18553, 18553, 18553, 18553, 18553, 18553, 18553, 18553, 18553, 18553, 18553, 18553, 18553, 18553, 18553, 18553, 18553, 18553, 18553, 18553, 18553, 18553, 18553, 18553, 18553, 18553, 18553, 18553, 18553, 18553, 18553, 18553, 18553, 18553, 18553, 18553, 18553, 18553, 18553, 18553, 18553, 18553, 18553, 18553, 18553, 18553, 18553, 18553, 18553, 18553, 18553, 18553, 18553, 18553, 18553, 2219, 18553, 18553, 18553, 18553, 18553, 18553, 18553, 18553, 18553, 18553, 18553, 18553, 18553, 18553, 18553, 18553, 18553, 18553, 18553, 18553, 18553, 18553, 18553, 18553, 18553, 18553, 18553, 18553, 18553, 18553, 18553, 18553, 18553, 18553, 18553, 18553, 18553, 18553, 18553, 18553, 18553, 18553, 18553, 18553, 18553, 18553, 18553, 18553, 18553, 18553, 18553, 18553, 18553, 18553, 18553, 18553, 18553, 18553, 18553, 18553, 18553, 18553, 18553, 18553, 18553, 18553, 18553, 18553, 18553, 18553, 18553, 18553, 18553, 18553, 2219, 18553, 18553, 18553, 18553, 18553, 18553, 18553, 18553, 18553, 18553, 18553, 18553, 18553, 18553, 18553, 18553, 18553, 18553, 18553, 18553, 18553, 18553, 18553, 18553, 18553, 18553, 18553, 18553, 18553, 18553, 18553, 18553, 18553, 18553, 18553, 18553, 18553, 18553, 18553, 18553, 18553, 18553, 18553, 18553, 18553, 18553, 18553, 18553, 18553, 18553, 18553, 18553, 18553, 18553, 18553, 18553, 18553, 18553, 18553, 18553, 18553, 18553, 18553, 18553, 18553, 18553, 18553, 18553, 18553, 18553, 18553, 18553, 18553, 18553, 2219, 18553, 18553, 18553, 18553, 18553, 18553, 18553, 18553, 18553, 18553, 18553, 18553, 18553, 18553, 18553, 18553, 18553, 18553, 18553, 18553, 18553, 18553, 18553, 18553, 18553, 18553, 18553, 18553, 18553, 18553, 18553, 18553, 18553, 18553, 18553, 18553, 18553, 18553, 18553, 18553, 18553, 18553, 18553, 18553, 18553, 18553, 18553, 18553, 18553, 18553, 18553, 18553, 18553, 18553, 18553, 18553, 18553, 18553, 18553, 18553, 18553, 18553, 18553, 18553, 18553, 18553, 18553, 18553, 18553, 18553, 18553, 18553, 18553, 18553, 2219, 18553, 18553, 18553, 18553, 18553, 18553, 18553, 18553, 18553, 18553, 18553, 18553, 18553, 18553, 18553, 18553, 18553, 18553, 18553, 18553, 18553, 18553, 18553, 18553, 18553, 18553, 18553, 18553, 18553, 18553, 18553, 18553, 18553, 18553, 18553, 18553, 18553, 18553, 18553, 18553, 18553, 18553, 18553, 18553, 18553, 18553, 18553, 18553, 18553, 18553, 18553, 18553, 18553, 18553, 18553, 18553, 18553, 18553, 18553, 18553, 18553, 18553, 18553, 18553, 18553, 18553, 18553, 18553, 18553, 18553, 18553, 18553, 18553, 18553, 2219, 18553, 18553, 18553, 18553, 18553, 18553, 18553, 18553, 18553, 18553, 18553, 18553, 18553, 18553, 18553, 18553, 18553, 18553, 18553, 18553, 18553, 18553, 18553, 18553, 18553, 18553, 18553, 18553, 18553, 18553, 18553, 18553, 18553, 18553, 18553, 18553, 18553, 18553, 18553, 18553, 18553, 18553, 18553, 18553, 18553, 18553, 18553, 18553, 18553, 18553, 18553, 18553, 18553, 18553, 18553, 18553, 18553, 18553, 18553, 18553, 18553, 18553, 18553, 18553, 18553, 18553, 18553, 18553, 18553, 18553, 18553, 18553, 18553, 18553, 2219, 18553, 18553, 18553, 18553, 18553, 18553, 18553, 18553, 18553, 18553, 18553, 18553, 18553, 18553, 18553, 18553, 18553, 18553, 18553, 18553, 18553, 18553, 18553, 18553, 18553, 18553, 18553, 18553, 18553, 18553, 18553, 18553, 18553, 18553, 18553, 18553, 18553, 18553, 18553, 18553, 18553, 18553, 18553, 18553, 18553, 18553, 18553, 18553, 18553, 18553, 18553, 18553, 18553, 18553, 18553, 18553, 18553, 18553, 18553, 18553, 18553, 18553, 18553, 18553, 18553, 18553, 18553, 18553, 18553, 18553, 18553, 18553, 18553, 18553, 2219, 18553, 18553, 18553, 18553, 18553, 18553, 18553, 18553, 18553, 18553, 18553, 18553, 18553, 18553, 18553, 18553, 18553, 18553, 18553, 18553, 18553, 18553, 18553, 18553, 18553, 18553, 18553, 18553, 18553, 18553, 18553, 18553, 18553, 18553, 18553, 18553, 18553, 18553, 18553, 18553, 18553, 18553, 18553, 18553, 18553, 18553, 18553, 18553, 18553, 18553, 18553, 18553, 18553, 18553, 18553, 18553, 18553, 18553, 18553, 18553, 18553, 18553, 18553, 18553, 18553, 18553, 18553, 18553, 18553, 18553, 18553, 18553, 18553, 18553, 2219, 18553, 18553, 18553, 18553, 18553, 18553, 18553, 18553, 18553, 18553, 18553, 18553, 18553, 18553, 18553, 18553, 18553, 18553, 18553, 18553, 18553, 18553, 18553, 18553, 18553, 18553, 18553, 18553, 18553, 18553, 18553, 18553, 18553, 18553, 18553, 18553, 18553, 18553, 18553, 18553, 18553, 18553, 18553, 18553, 18553, 18553, 18553, 18553, 18553, 18553, 18553, 18553, 18553, 18553, 18553, 18553, 18553, 18553, 18553, 18553, 18553, 18553, 18553, 18553, 18553, 18553, 18553, 18553, 18553, 18553, 18553, 18553, 18553, 18553, 2219, 18553, 18553, 18553, 18553, 18553, 18553, 18553, 18553, 18553, 18553, 18553, 18553, 18553, 18553, 18553, 18553, 18553, 18553, 18553, 18553, 18553, 18553, 18553, 18553, 18553, 18553, 18553, 18553, 18553, 18553, 18553, 18553, 18553, 18553, 18553, 18553, 18553, 18553, 18553, 18553, 18553, 18553, 18553, 18553, 18553, 18553, 18553, 18553, 18553, 18553, 18553, 18553, 18553, 18553, 18553, 18553, 18553, 18553, 18553, 18553, 18553, 18553, 2219, 2219, 2219, 2219, 2219, 2219, 2219, 2219, 2219, 2219, 2219, 2219, 2219, 18553, 18553, 18553, 18553, 18553, 18553, 18553, 18553, 18553, 18553, 18553, 18553, 18553, 18553, 18553, 18553, 18553, 18553, 18553, 18553, 18553, 18553, 18553, 18553, 18553, 18553, 18553, 18553, 18553, 18553, 18553, 18553, 18553, 18553, 18553, 18553, 18553, 18553, 18553, 18553, 18553, 18553, 18553, 18553, 18553, 18553, 18553, 18553, 18553, 18553, 18553, 18553, 18553, 18553, 18553, 18553, 18553, 18553, 18553, 18553, 18553, 18553, 18553, 18553, 18553, 18553, 18553, 18553, 18553, 18553, 18553, 18553, 18553, 18553, 2219, 18553, 18553, 18553, 18553, 18553, 18553, 18553, 18553, 18553, 18553, 18553, 18553, 18553, 18553, 18553, 18553, 18553, 18553, 18553, 18553, 18553, 18553, 18553, 18553, 18553, 18553, 18553, 18553, 18553, 18553, 18553, 18553, 18553, 18553, 18553, 18553, 18553, 18553, 18553, 18553, 18553, 18553, 18553, 18553, 18553, 18553, 18553, 18553, 18553, 18553, 18553, 18553, 18553, 18553, 18553, 18553, 18553, 18553, 18553, 18553, 18553, 18553, 18553, 18553, 18553, 18553, 18553, 18553, 18553, 18553, 18553, 18553, 18553, 18553, 2219, 18553, 18553, 18553, 18553, 18553, 18553, 18553, 18553, 18553, 18553, 18553, 18553, 18553, 18553, 18553, 18553, 18553, 18553, 18553, 18553, 18553, 18553, 18553, 18553, 18553, 18553, 18553, 18553, 18553, 18553, 18553, 18553, 18553, 18553, 18553, 18553, 18553, 18553, 18553, 18553, 18553, 18553, 18553, 18553, 18553, 18553, 18553, 18553, 18553, 18553, 18553, 18553, 18553, 18553, 18553, 18553, 18553, 18553, 18553, 18553, 18553, 18553, 18553, 18553, 18553, 18553, 18553, 18553, 18553, 18553, 18553, 18553, 18553, 18553, 18553, 18553, 18553, 18553, 18553, 18553, 18553, 18553, 18553, 18553, 18553, 18553, 18553, 18553, 18553, 18553, 18553, 18553, 18553, 18553, 18553, 18553, 18553, 18553, 18553, 18553, 18553, 18553, 18553, 18553, 18553, 18553, 18553, 18553, 18553, 18553, 18553, 18553, 18553, 18553, 18553, 18553, 18553, 18553, 18553, 18553, 18553, 18553, 18553, 18553, 18553, 18553, 18553, 18553, 18553, 18553, 18553, 18553, 18553, 18553, 18553, 18553, 18553, 18553, 18553, 18553, 18553, 18553, 18553, 18553, 18553, 18553, 18553, 18553, 18553, 18553, 18553, 18553, 18553, 18553, 18553, 18553, 18553, 18553, 18553, 18553, 18553, 18553, 18553, 18553, 18553, 18553, 18553, 18553, 18553, 18553, 18553, 18553, 18553, 18553, 18553, 18553, 18553, 18553, 18553, 18553, 18553, 18553, 18553, 18553, 18553, 18553, 18553, 18553, 18553, 18553, 18553, 18553, 18553, 18553, 18553, 18553, 18553, 18553, 18553, 18553, 18553, 18553, 18553, 18553, 18553, 18553, 18553, 18553, 18553, 18553, 18553, 18553, 18553, 18553, 18553, 18553, 18553, 18553, 18553, 18553, 18553, 18553, 18553, 18553, 2219, 18553, 18553, 18553, 18553, 18553, 18553, 18553, 18553, 18553, 18553, 18553, 18553, 18553, 18553, 18553, 18553, 18553, 18553, 18553, 18553, 18553, 18553, 18553, 18553, 18553, 18553, 18553, 18553, 18553, 18553, 18553, 18553, 18553, 18553, 18553],
         "height":45,
         "id":5,
         "name":"Capa de patrones 3",
         "opacity":1,
         "type":"tilelayer",
         "visible":true,
         "width":75,
         "x":0,
         "y":0
        }, 
        {
         "data":[0, 0, 0, 0, 0, 0, 0, 0, 0, 0, 0, 0, 0, 0, 0, 0, 0, 0, 0, 0, 0, 0, 0, 0, 0, 0, 0, 0, 0, 0, 0, 0, 0, 0, 0, 0, 0, 0, 0, 0, 0, 0, 0, 0, 0, 0, 0, 0, 0, 0, 0, 0, 0, 0, 0, 0, 0, 0, 0, 0, 0, 0, 0, 0, 0, 0, 0, 0, 0, 0, 0, 0, 0, 0, 0, 0, 0, 0, 0, 0, 0, 0, 0, 0, 0, 0, 0, 0, 0, 0, 0, 0, 0, 0, 0, 0, 0, 0, 0, 0, 0, 0, 0, 0, 0, 0, 0, 0, 0, 0, 0, 0, 0, 0, 0, 0, 0, 0, 0, 0, 0, 0, 0, 0, 0, 0, 0, 0, 0, 0, 0, 0, 0, 0, 0, 0, 0, 0, 0, 0, 0, 0, 0, 0, 0, 0, 0, 0, 0, 0, 0, 0, 0, 0, 0, 0, 0, 0, 0, 0, 0, 0, 0, 0, 0, 0, 0, 0, 0, 0, 0, 0, 0, 0, 0, 0, 0, 0, 0, 0, 0, 0, 0, 0, 0, 0, 0, 0, 0, 0, 0, 0, 0, 0, 0, 0, 0, 0, 0, 0, 0, 0, 0, 0, 0, 0, 0, 0, 0, 0, 0, 0, 0, 0, 0, 0, 0, 0, 0, 0, 0, 0, 0, 0, 0, 0, 0, 0, 0, 0, 0, 0, 0, 0, 0, 0, 0, 0, 0, 0, 0, 0, 0, 0, 0, 0, 0, 0, 0, 0, 0, 0, 0, 0, 0, 0, 0, 0, 0, 0, 0, 0, 0, 0, 0, 0, 0, 0, 0, 0, 0, 0, 0, 0, 0, 0, 0, 0, 0, 0, 0, 0, 0, 0, 0, 0, 0, 0, 0, 0, 0, 0, 0, 0, 0, 0, 0, 0, 0, 0, 0, 0, 0, 0, 0, 0, 0, 0, 0, 0, 0, 0, 0, 0, 0, 0, 0, 0, 0, 0, 0, 0, 0, 0, 0, 0, 0, 0, 0, 0, 0, 0, 0, 0, 0, 0, 0, 0, 0, 0, 0, 0, 0, 0, 0, 0, 0, 0, 0, 0, 0, 0, 0, 0, 0, 0, 0, 0, 0, 0, 0, 0, 0, 0, 0, 0, 0, 0, 0, 0, 0, 0, 0, 0, 0, 0, 0, 0, 0, 0, 0, 0, 0, 0, 0, 0, 0, 0, 0, 0, 0, 0, 0, 0, 0, 0, 0, 0, 0, 0, 0, 0, 0, 0, 0, 0, 0, 0, 0, 0, 0, 0, 0, 0, 0, 0, 0, 0, 0, 0, 0, 0, 0, 0, 0, 0, 0, 0, 0, 0, 0, 0, 0, 0, 0, 0, 0, 0, 0, 0, 0, 0, 0, 0, 0, 0, 0, 0, 0, 0, 0, 0, 0, 0, 0, 0, 0, 0, 0, 0, 0, 0, 0, 0, 0, 0, 0, 0, 0, 0, 0, 0, 0, 0, 0, 0, 0, 0, 0, 0, 0, 0, 0, 0, 0, 0, 0, 0, 0, 0, 0, 0, 0, 0, 0, 0, 0, 0, 0, 0, 0, 0, 0, 0, 0, 0, 0, 0, 0, 0, 0, 0, 0, 0, 0, 0, 0, 0, 0, 0, 0, 0, 0, 0, 0, 0, 0, 0, 0, 0, 0, 0, 0, 0, 0, 0, 0, 0, 0, 0, 0, 0, 0, 0, 0, 0, 0, 0, 0, 0, 0, 0, 0, 0, 0, 0, 0, 0, 0, 0, 0, 0, 0, 0, 0, 0, 0, 0, 0, 0, 0, 0, 0, 0, 0, 0, 0, 0, 0, 0, 0, 0, 0, 0, 0, 0, 0, 0, 0, 0, 0, 0, 0, 0, 0, 0, 0, 0, 0, 0, 0, 0, 0, 0, 0, 0, 0, 0, 0, 0, 0, 0, 0, 0, 0, 0, 0, 0, 0, 0, 0, 0, 0, 0, 0, 0, 0, 0, 0, 0, 0, 0, 0, 0, 0, 0, 0, 0, 0, 0, 0, 0, 0, 0, 0, 0, 0, 0, 0, 0, 0, 0, 0, 0, 0, 0, 0, 0, 0, 0, 0, 0, 0, 0, 0, 0, 0, 0, 0, 0, 0, 0, 0, 0, 0, 0, 0, 0, 0, 0, 0, 0, 0, 0, 0, 0, 0, 0, 0, 0, 0, 0, 0, 0, 0, 0, 0, 0, 0, 0, 0, 0, 0, 0, 0, 0, 0, 0, 0, 0, 0, 0, 0, 0, 0, 0, 0, 0, 0, 0, 0, 0, 0, 0, 0, 0, 0, 0, 0, 0, 0, 0, 0, 0, 0, 0, 0, 0, 0, 0, 0, 0, 0, 0, 0, 0, 0, 0, 0, 0, 0, 0, 0, 0, 0, 0, 0, 0, 0, 0, 0, 0, 0, 0, 0, 0, 0, 0, 0, 0, 0, 0, 0, 0, 0, 0, 0, 0, 0, 0, 0, 0, 0, 0, 0, 0, 0, 0, 0, 0, 0, 0, 0, 0, 0, 0, 0, 0, 0, 0, 0, 0, 0, 0, 0, 0, 0, 0, 0, 0, 0, 0, 0, 0, 0, 0, 0, 0, 0, 0, 0, 0, 0, 0, 0, 0, 0, 0, 0, 0, 0, 0, 0, 0, 0, 0, 0, 0, 0, 0, 0, 0, 0, 0, 0, 0, 0, 0, 0, 0, 0, 0, 0, 0, 0, 0, 0, 0, 0, 0, 0, 0, 0, 0, 0, 0, 0, 0, 0, 0, 0, 0, 0, 0, 0, 0, 0, 0, 0, 0, 0, 0, 0, 0, 0, 0, 0, 0, 0, 0, 0, 0, 0, 0, 0, 0, 0, 0, 0, 0, 0, 0, 0, 0, 0, 0, 0, 0, 0, 0, 0, 0, 0, 0, 0, 0, 0, 0, 0, 0, 0, 0, 0, 0, 0, 0, 0, 0, 0, 0, 0, 0, 0, 0, 0, 0, 0, 0, 0, 0, 0, 0, 0, 0, 0, 0, 0, 0, 0, 0, 0, 0, 0, 0, 0, 0, 0, 0, 0, 0, 0, 0, 0, 0, 0, 0, 0, 0, 0, 0, 0, 0, 0, 0, 0, 0, 0, 0, 0, 0, 0, 0, 0, 0, 0, 0, 0, 0, 0, 0, 0, 0, 0, 0, 0, 0, 0, 0, 0, 0, 0, 0, 0, 0, 0, 0, 0, 0, 0, 0, 0, 0, 0, 0, 0, 0, 0, 0, 0, 0, 0, 0, 0, 0, 0, 0, 0, 0, 0, 0, 0, 0, 0, 0, 0, 0, 0, 0, 0, 0, 0, 0, 0, 0, 0, 0, 0, 0, 0, 0, 0, 0, 0, 0, 0, 0, 0, 0, 0, 0, 0, 0, 0, 0, 0, 0, 0, 0, 0, 0, 0, 0, 0, 0, 0, 0, 0, 0, 0, 0, 0, 0, 0, 0, 0, 0, 0, 0, 0, 0, 0, 0, 0, 0, 0, 0, 0, 0, 0, 0, 0, 0, 0, 0, 0, 0, 0, 0, 0, 0, 0, 0, 0, 0, 0, 0, 0, 0, 0, 0, 0, 0, 0, 0, 0, 0, 0, 0, 0, 0, 0, 0, 0, 0, 0, 0, 0, 0, 0, 0, 0, 0, 0, 0, 0, 0, 0, 0, 0, 0, 0, 0, 0, 0, 0, 0, 0, 0, 0, 0, 0, 0, 0, 0, 0, 0, 0, 0, 0, 0, 0, 0, 0, 0, 0, 0, 0, 0, 0, 0, 0, 0, 0, 0, 0, 0, 0, 0, 0, 0, 0, 0, 0, 0, 0, 0, 0, 0, 0, 0, 0, 0, 0, 0, 0, 0, 0, 0, 0, 0, 0, 0, 0, 0, 0, 0, 0, 0, 0, 0, 0, 0, 0, 0, 0, 0, 0, 0, 0, 0, 0, 0, 0, 0, 0, 0, 0, 0, 0, 0, 0, 0, 0, 0, 0, 0, 0, 0, 0, 0, 0, 0, 0, 0, 0, 0, 0, 0, 0, 0, 0, 0, 0, 0, 0, 0, 0, 0, 0, 0, 0, 0, 0, 0, 0, 0, 0, 0, 0, 0, 0, 0, 0, 0, 0, 0, 0, 0, 0, 0, 0, 0, 0, 0, 0, 0, 0, 0, 0, 0, 0, 0, 0, 0, 0, 0, 0, 0, 0, 0, 0, 0, 0, 0, 0, 0, 0, 0, 0, 0, 0, 0, 0, 0, 0, 0, 0, 0, 0, 0, 0, 0, 0, 0, 0, 0, 0, 0, 0, 0, 0, 0, 0, 0, 0, 0, 0, 0, 0, 0, 0, 0, 0, 0, 0, 0, 0, 0, 0, 0, 0, 0, 0, 0, 0, 0, 0, 0, 0, 0, 0, 0, 0, 0, 0, 0, 0, 0, 0, 0, 0, 0, 0, 0, 0, 0, 0, 0, 0, 0, 0, 0, 0, 0, 0, 0, 0, 0, 0, 0, 0, 0, 0, 0, 0, 0, 0, 0, 0, 0, 0, 0, 0, 0, 0, 0, 0, 0, 0, 0, 0, 0, 0, 0, 0, 0, 0, 0, 0, 0, 0, 0, 0, 0, 0, 0, 0, 0, 0, 0, 0, 0, 0, 0, 0, 0, 0, 0, 0, 0, 0, 0, 0, 0, 0, 0, 0, 0, 0, 0, 0, 0, 0, 0, 0, 0, 0, 0, 0, 0, 0, 0, 0, 0, 0, 0, 0, 0, 0, 0, 0, 0, 0, 0, 0, 0, 0, 0, 0, 0, 0, 0, 0, 0, 0, 0, 0, 0, 0, 0, 0, 0, 0, 0, 0, 0, 0, 0, 0, 0, 0, 0, 0, 0, 0, 0, 0, 0, 0, 0, 0, 0, 0, 0, 0, 0, 0, 0, 0, 0, 0, 0, 0, 0, 0, 0, 0, 0, 0, 0, 0, 0, 0, 0, 0, 0, 0, 0, 0, 0, 0, 0, 0, 0, 0, 0, 0, 0, 0, 0, 0, 0, 0, 0, 0, 0, 0, 0, 0, 0, 0, 0, 0, 0, 0, 0, 0, 0, 0, 0, 0, 0, 0, 0, 0, 0, 0, 0, 0, 0, 0, 0, 0, 0, 0, 0, 0, 0, 0, 0, 0, 0, 0, 0, 0, 0, 0, 0, 0, 0, 0, 0, 0, 0, 0, 0, 0, 0, 0, 0, 0, 0, 0, 0, 0, 0, 0, 0, 0, 0, 0, 0, 0, 0, 0, 0, 0, 0, 0, 0, 0, 0, 0, 0, 0, 0, 0, 0, 0, 0, 0, 0, 0, 0, 0, 0, 0, 0, 0, 0, 0, 0, 0, 0, 0, 0, 0, 0, 0, 0, 0, 0, 0, 0, 0, 0, 0, 0, 0, 0, 0, 0, 0, 0, 0, 0, 0, 0, 0, 0, 0, 0, 0, 0, 0, 0, 0, 0, 0, 0, 0, 0, 0, 0, 0, 0, 0, 0, 0, 0, 0, 0, 0, 0, 0, 0, 0, 0, 0, 0, 0, 0, 0, 0, 0, 0, 0, 0, 0, 0, 0, 0, 0, 0, 0, 0, 0, 0, 0, 0, 0, 0, 0, 0, 0, 0, 0, 0, 0, 0, 0, 0, 0, 0, 0, 0, 0, 0, 0, 0, 0, 0, 0, 0, 0, 0, 0, 0, 0, 0, 0, 0, 0, 0, 0, 0, 0, 0, 0, 0, 0, 0, 0, 0, 0, 0, 0, 0, 0, 0, 0, 0, 0, 0, 0, 0, 0, 0, 0, 0, 0, 0, 0, 0, 0, 0, 0, 0, 0, 0, 0, 0, 0, 0, 0, 0, 0, 0, 0, 0, 0, 0, 0, 0, 0, 0, 0, 0, 0, 0, 0, 0, 0, 0, 0, 0, 0, 0, 0, 0, 0, 0, 0, 0, 0, 0, 0, 0, 0, 0, 0, 0, 0, 0, 0, 0, 0, 0, 0, 0, 0, 0, 0, 0, 0, 0, 0, 0, 0, 0, 0, 0, 0, 0, 0, 0, 0, 0, 0, 0, 0, 0, 0, 0, 0, 0, 0, 0, 0, 0, 0, 0, 0, 0, 0, 0, 0, 0, 0, 0, 0, 0, 0, 0, 0, 0, 0, 0, 0, 0, 0, 0, 0, 0, 0, 0, 0, 0, 0, 0, 0, 0, 0, 0, 0, 0, 0, 0, 0, 0, 0, 0, 0, 0, 0, 0, 0, 0, 0, 0, 0, 0, 0, 0, 0, 0, 0, 0, 0, 0, 0, 0, 0, 0, 0, 0, 0, 0, 0, 0, 0, 0, 0, 0, 0, 0, 0, 0, 0, 0, 0, 0, 0, 0, 0, 0, 0, 0, 0, 0, 0, 0, 0, 0, 0, 0, 0, 0, 0, 0, 0, 0, 0, 0, 0, 0, 0, 0, 0, 0, 0, 0, 0, 0, 0, 0, 0, 0, 0, 0, 0, 0, 0, 0, 0, 0, 0, 0, 0, 0, 0, 0, 0, 0, 0, 0, 0, 0, 0, 0, 0, 0, 0, 0, 0, 0, 0, 0, 0, 0, 0, 0, 0, 0, 0, 0, 0, 0, 0, 0, 0, 0, 0, 0, 0, 0, 0, 0, 0, 0, 0, 0, 0, 0, 0, 0, 0, 0, 0, 0, 0, 0, 0, 0, 0, 0, 0, 0, 0, 0, 0, 0, 0, 0, 0, 0, 0, 0, 0, 0, 0, 0, 0, 0, 0, 0, 0, 0, 0, 0, 0, 0, 0, 0, 0, 0, 0, 0, 0, 0, 0, 0, 0, 0, 0, 0, 0, 0, 0, 0, 0, 0, 0, 0, 0, 0, 0, 0, 0, 0, 0, 0, 0, 0, 0, 0, 0, 0, 0, 0, 0, 0, 0, 0, 0, 0, 0, 0, 0, 0, 0, 0, 0, 0, 0, 0, 0, 0, 0, 0, 0, 0, 0, 0, 0, 0, 0, 0, 0, 0, 0, 0, 0, 0, 0, 0, 0, 0, 0, 0, 0, 0, 0, 0, 0, 0, 0, 0, 0, 0, 0, 0, 0, 0, 0, 0, 0, 0, 0, 0, 0, 0, 0, 0, 0, 0, 0, 0, 0, 0, 0, 0, 0, 0, 0, 0, 0, 0, 0, 0, 0, 0, 0, 0, 0, 0, 0, 0, 0, 0, 0, 0, 0, 0, 0, 0, 0, 0, 0, 0, 0, 0, 0, 0, 0, 0, 0, 0, 0, 0, 0, 0, 0, 0, 0, 0, 0, 0, 0, 0, 0, 0, 0, 0, 0, 0, 0, 0, 0, 0, 0, 0, 0, 0, 0, 0, 0, 0, 0, 0, 0, 0, 0, 0, 0, 0, 0, 0, 0, 0, 0, 0, 0, 0, 0, 0, 0, 0, 0, 0, 0, 0, 0, 0, 0, 0, 0, 0, 0, 0, 0, 0, 0, 0, 0, 0, 0, 0, 0, 0, 0, 0, 0, 0, 0, 0, 0, 0, 0, 0, 0, 0, 0, 0, 0, 0, 0, 0, 0, 0, 0, 0, 0, 0, 0, 0, 0, 0, 0, 0, 0, 0, 0, 0, 0, 0, 0, 0, 0, 0, 0, 0, 0, 0, 0, 0, 0, 0, 0, 0, 0, 0, 0, 0, 0, 0, 0, 0, 0, 0, 0, 0, 0, 0, 0, 0, 0, 0, 0, 0, 0, 0, 0, 0, 0, 0, 0, 0, 0, 0, 0, 0, 0, 0, 0, 0, 0, 0, 0, 0, 0, 0, 0, 0, 0, 0, 0, 0, 0, 0, 0, 0, 0, 0, 0, 0, 0, 0, 0, 0, 0, 0, 0, 0, 0, 0, 0, 0, 0, 0, 0, 0, 0, 0, 0, 0, 0, 0, 0, 0, 0, 0, 0, 0, 0, 0, 0, 0, 0, 0, 0, 0, 0, 0, 0, 0, 0, 0, 0, 0, 0, 0, 0, 0, 0, 0, 0, 0, 0, 0, 0, 0, 0, 0, 0, 0, 0, 0, 0, 0, 0, 0, 0, 0, 0, 0, 0, 0, 0, 0, 0, 0, 0, 0, 0, 0, 0, 0, 0, 0, 0, 0, 0, 0, 0, 0, 0, 0, 0, 0, 0, 0, 0, 0, 0, 0, 0, 0, 0, 0, 0, 0, 0, 0, 0, 0, 0, 0, 0, 0, 0, 0, 0, 0, 0, 0, 0, 0, 0, 0, 0, 0, 0, 0, 0, 0, 0, 0, 0, 0, 0, 0, 0, 0, 0, 0, 0, 0, 0, 0, 0, 0, 0, 0, 0, 0, 0, 0, 0, 0, 0, 0, 0, 0, 0, 0, 0, 0, 0, 0, 0, 0, 0, 0, 0, 0, 0, 0, 0, 0, 0, 0, 0, 0, 0, 0, 0, 0, 0, 0, 0, 0, 0, 0, 0, 0, 0, 0, 0, 0, 0, 0, 0, 0, 0, 0, 0, 0, 0, 0, 0, 0, 0, 0, 0, 0, 0, 0, 0, 0, 0, 0, 0, 0, 0, 0, 0, 0, 0, 0, 0, 0, 0, 0, 0, 0, 0, 0, 0, 0, 0, 0, 0, 0, 0, 0, 0, 0, 0, 0, 0, 0, 0, 0, 0, 0, 0, 0, 0, 0, 0, 0, 0, 0, 0, 0, 0, 0, 0, 0, 0, 0, 0, 0, 0, 0, 0, 0, 0, 0, 0, 0, 0, 0, 0, 0, 0, 0, 0, 0, 0, 0, 0, 0, 0, 0, 0, 0, 0, 0, 0, 0, 0, 0, 0, 0, 0, 0, 0, 0, 0, 0, 0, 0, 0, 0, 0, 0, 0, 0, 0, 0, 0, 0, 0, 0, 0, 0, 0, 0, 0, 0, 0, 0, 0, 0, 0, 0, 0, 0, 0, 0, 0, 0, 0, 0, 0, 0, 0, 0, 0, 0, 0, 0, 0, 0, 0, 0, 0, 0, 0, 0, 0, 0, 0, 0, 0, 0, 0, 0, 0, 0, 0, 0, 0, 0, 0, 0, 0, 0, 0, 0, 0, 0, 0, 0, 0, 0, 0, 0, 0, 0, 0, 0, 0, 0, 0, 0, 0, 0, 0, 0, 0, 0, 0, 0, 0, 0, 0, 0, 0, 0, 0, 0, 0, 0, 0, 0, 0, 0, 0, 0, 0, 0, 0, 0, 0, 0, 0, 0, 0, 0, 0, 0, 0, 0, 0, 0, 0, 0, 0, 0, 0, 0, 0, 0, 0, 0, 0, 0, 0, 0, 0, 0, 0, 0, 0, 0, 0, 0, 0, 0, 0, 0, 0, 0, 0, 0, 0, 0, 0, 0, 0, 0, 0, 0, 0, 0, 0, 0, 0, 0, 0, 0, 0, 0, 0, 0, 0, 0, 0, 0, 0, 0, 0, 0, 0, 0, 0, 0, 0, 0, 0, 0, 0, 0, 0, 0, 0, 0, 0, 0, 0, 0, 0, 0, 0, 0, 0, 0, 0, 0, 0, 0, 0, 0, 0, 0, 0, 0, 0, 0, 0, 0, 0, 0, 0, 0, 0, 0, 0, 0, 0, 0, 0, 0, 0, 0, 0, 0, 0, 0, 0, 0, 0, 0, 0, 0, 0, 0, 0, 0, 0, 0, 0, 0, 0, 0, 0, 0, 0, 0, 0, 0, 0, 0, 0, 0, 0, 0, 0, 0, 0, 0, 0, 0, 0, 0, 0, 0, 0, 0, 0, 0, 0, 0, 0, 0, 0, 0, 0, 0, 0, 0, 0, 0, 0, 0, 0, 0, 0, 0, 0, 0, 0, 0, 0, 0, 0, 0, 0, 0, 0, 0, 0, 0, 0, 0, 0, 0, 0, 0, 0, 0, 0, 0, 0, 0, 0, 0, 0, 0, 0, 0, 0, 0, 0, 0, 0, 0, 0, 0, 0, 0, 0, 0, 0, 0, 0, 0, 0, 0, 0, 0, 0, 0, 0, 0, 0, 0, 0, 0, 0, 0, 0, 0, 0, 0, 0, 0, 0, 0, 0, 0, 0, 0, 0, 0, 0, 0, 0, 0, 0, 0, 0, 0, 0, 0, 0, 0, 0, 0, 0, 0, 0, 0, 0, 0, 0, 0, 0, 0, 0, 0, 0, 0, 0, 0, 0, 0, 0, 0, 0, 0, 0, 0, 0, 0, 0, 0, 0, 0, 0, 0, 0, 0, 0, 0, 0, 0, 0, 0, 0, 0, 0, 0, 0, 0, 0, 0, 0, 0, 0, 0, 0, 0, 0, 0, 0, 0, 0, 0, 0, 0, 0, 0, 0, 0, 0, 0, 0, 0, 0, 0, 0, 0, 0, 0, 0, 0, 0, 0, 0, 0, 0, 0, 0, 0, 0, 0, 0, 0, 0, 0, 0, 0, 0, 0, 0, 0, 0, 0, 0, 0, 0, 0, 0, 0, 0, 0, 0, 0, 0, 0, 0, 0, 0, 0, 0, 0, 0, 0, 0, 0, 0, 0, 0, 0, 0, 0, 0, 0, 0, 0, 0, 0, 0, 0, 0, 0, 0, 0, 0, 0, 0, 0, 0, 0, 0, 0, 0, 0, 0, 0, 0, 0, 0, 0, 0, 0, 0, 0, 0, 0, 0, 0, 0, 0, 0, 0, 0, 0, 0, 0, 0, 0, 0, 0, 0, 0, 0, 0, 0, 0, 0, 0, 0, 0, 0, 0, 0, 0, 0, 0, 0, 0, 0, 0, 0, 0, 0, 0, 0, 0, 0, 0, 0, 0, 0, 0, 0, 0, 0, 0, 0, 0, 0, 0, 0, 0, 0, 0, 0, 0, 0, 0, 0, 0, 0, 0, 0, 0, 0, 0, 0, 0, 0, 0, 0, 0, 0, 0, 0, 0, 0, 0, 0, 0, 0, 0, 0, 0, 0, 0, 0],
         "height":45,
         "id":6,
         "name":"Capa de patrones 4",
         "opacity":1,
         "type":"tilelayer",
         "visible":true,
         "width":75,
         "x":0,
         "y":0
        }, 
        {
         "draworder":"topdown",
         "id":4,
         "name":"Capa de Objetos 1",
         "objects":[
                
                {
                 "height":400,
                 "id":2,
                 "name":"",
                 "rotation":0,
                 "type":"",
                 "visible":true,
                 "width":304,
                 "x":0,
                 "y":0
                }, 
                {
                 "height":32,
                 "id":3,
                 "name":"",
                 "rotation":0,
                 "type":"",
                 "visible":true,
                 "width":32,
                 "x":377,
                 "y":6
                }, 
                {
                 "height":32,
                 "id":4,
                 "name":"",
                 "rotation":0,
                 "type":"",
                 "visible":true,
                 "width":32,
                 "x":426,
                 "y":48
                }, 
                {
                 "height":32,
                 "id":5,
                 "name":"",
                 "rotation":0,
                 "type":"",
                 "visible":true,
                 "width":32,
                 "x":684,
                 "y":48
                }, 
                {
                 "height":32,
                 "id":6,
                 "name":"",
                 "rotation":0,
                 "type":"",
                 "visible":true,
                 "width":16,
                 "x":622,
                 "y":52
                }, 
                {
                 "height":32,
                 "id":7,
                 "name":"",
                 "rotation":0,
                 "type":"",
                 "visible":true,
                 "width":32,
                 "x":745,
                 "y":5
                }, 
                {
                 "height":64,
                 "id":8,
                 "name":"",
                 "rotation":0,
                 "type":"",
                 "visible":true,
                 "width":96,
                 "x":526,
                 "y":1
                }, 
                {
                 "height":80,
                 "id":9,
                 "name":"",
                 "rotation":0,
                 "type":"",
                 "visible":true,
                 "width":112,
                 "x":769,
                 "y":258
                }, 
                {
                 "height":80,
                 "id":10,
                 "name":"",
                 "rotation":0,
                 "type":"",
                 "visible":true,
                 "width":112,
                 "x":769,
                 "y":80
                }, 
                {
                 "height":192,
                 "id":12,
                 "name":"",
                 "rotation":0,
                 "type":"",
                 "visible":true,
                 "width":256,
                 "x":178,
                 "y":441
                }, 
                {
                 "height":32,
                 "id":13,
                 "name":"",
                 "rotation":0,
                 "type":"",
                 "visible":true,
                 "width":208,
                 "x":974,
                 "y":525
                }, 
                {
                 "height":32,
                 "id":15,
                 "name":"",
                 "rotation":0,
                 "type":"",
                 "visible":true,
                 "width":208,
                 "x":974,
                 "y":656
                }, 
                {
                 "height":64,
                 "id":16,
                 "name":"",
                 "rotation":0,
                 "type":"",
                 "visible":true,
                 "width":128,
                 "x":773,
                 "y":516
                }, 
                {
                 "height":64,
                 "id":17,
                 "name":"",
                 "rotation":0,
                 "type":"",
                 "visible":true,
                 "width":128,
                 "x":778,
                 "y":628
                }, 
                {
                 "height":80,
                 "id":18,
                 "name":"",
                 "rotation":0,
                 "type":"",
                 "visible":true,
                 "width":80,
                 "x":780,
                 "y":404
                }, 
                {
                 "height":64,
                 "id":19,
                 "name":"",
                 "rotation":0,
                 "type":"",
                 "visible":true,
                 "width":310,
                 "x":884,
                 "y":438
                }, 
                {
                 "height":112,
                 "id":20,
                 "name":"",
                 "rotation":0,
                 "type":"",
                 "visible":true,
                 "width":96,
                 "x":1056,
                 "y":149
                }, 
                {
                 "height":272,
                 "id":21,
                 "name":"",
                 "rotation":0,
                 "type":"",
                 "visible":true,
                 "width":64,
                 "x":1,
                 "y":404
                }, 
                {
                 "height":64,
                 "id":22,
                 "name":"",
                 "rotation":0,
                 "type":"",
                 "visible":true,
                 "width":64,
                 "x":81,
                 "y":645
                }, 
                {
                 "height":512,
                 "id":23,
                 "name":"",
                 "rotation":0,
                 "type":"",
                 "visible":true,
                 "width":16,
                 "x":624,
                 "y":157
                }, 
                {
                 "height":16,
                 "id":24,
                 "name":"",
                 "rotation":0,
                 "type":"",
                 "visible":true,
                 "width":320,
                 "x":304,
                 "y":158
                }, 
                {
                 "height":16,
                 "id":25,
                 "name":"",
                 "rotation":0,
                 "type":"",
                 "visible":true,
                 "width":192,
                 "x":435,
                 "y":620
                }, 
                {
                 "height":16,
                 "id":26,
                 "name":"",
                 "rotation":0,
                 "type":"",
                 "visible":true,
                 "width":16,
                 "x":622,
                 "y":704
                }],
         "opacity":1,
         "type":"objectgroup",
         "visible":true,
         "x":0,
         "y":0
        }],
 "nextlayerid":7,
 "nextobjectid":27,
 "orientation":"orthogonal",
 "renderorder":"right-down",
 "tiledversion":"1.4.2",
 "tileheight":16,
 "tilesets":[
        {
         "firstgid":1,
         "source":"..\/..\/materias uni\/POO java\/Objetos que sirven\/mapa\/SpritesMapaPrincipal.tsx"
        }, 
        {
         "firstgid":18551,
         "source":"..\/..\/materias uni\/POO java\/Objetos que sirven\/mapa\/sombra.tsx"
        }],
 "tilewidth":16,
 "type":"map",
 "version":1.4,
 "width":75
}